
DisplayName "Tartarus (Western Gold)"



EVENT   1
 PAGE   1
  250(bytes(0x04,0x08,0x6f,0x3a,0x0c,0x52,0x50,0x47,0x3a,0x3a,0x53,0x45,0x08,0x3a,0x0a,0x40,0x6e,0x61,0x6d,0x65,0x49,0x22,0x09,0x4d,0x6f,0x76,0x65,0x06,0x3a,0x06,0x45,0x54,0x3a,0x0b,0x40,0x70,0x69,0x74,0x63,0x68,0x69,0x69,0x3a,0x0c,0x40,0x76,0x6f,0x6c,0x75,0x6d,0x65,0x69,0x55))
  TeleportPlayer(0,428,13,1,0,0)
  0()



EVENT   2
 PAGE   1
  250(bytes(0x04,0x08,0x6f,0x3a,0x0c,0x52,0x50,0x47,0x3a,0x3a,0x53,0x45,0x08,0x3a,0x0a,0x40,0x6e,0x61,0x6d,0x65,0x49,0x22,0x09,0x4d,0x6f,0x76,0x65,0x06,0x3a,0x06,0x45,0x54,0x3a,0x0b,0x40,0x70,0x69,0x74,0x63,0x68,0x69,0x69,0x3a,0x0c,0x40,0x76,0x6f,0x6c,0x75,0x6d,0x65,0x69,0x55))
  TeleportPlayer(0,2,116,137,2,0)
  0()



EVENT   3
 PAGE   1
  250(bytes(0x04,0x08,0x6f,0x3a,0x0c,0x52,0x50,0x47,0x3a,0x3a,0x53,0x45,0x08,0x3a,0x0a,0x40,0x6e,0x61,0x6d,0x65,0x49,0x22,0x09,0x4d,0x6f,0x76,0x65,0x06,0x3a,0x06,0x45,0x54,0x3a,0x0b,0x40,0x70,0x69,0x74,0x63,0x68,0x69,0x69,0x3a,0x0c,0x40,0x76,0x6f,0x6c,0x75,0x6d,0x65,0x69,0x55))
  TeleportPlayer(0,2,116,137,2,0)
  0()



EVENT   4
 PAGE   1
  250(bytes(0x04,0x08,0x6f,0x3a,0x0c,0x52,0x50,0x47,0x3a,0x3a,0x53,0x45,0x08,0x3a,0x0a,0x40,0x6e,0x61,0x6d,0x65,0x49,0x22,0x09,0x4d,0x6f,0x76,0x65,0x06,0x3a,0x06,0x45,0x54,0x3a,0x0b,0x40,0x70,0x69,0x74,0x63,0x68,0x69,0x69,0x3a,0x0c,0x40,0x76,0x6f,0x6c,0x75,0x6d,0x65,0x69,0x55))
  TeleportPlayer(0,2,116,137,2,0)
  0()



EVENT   5
 PAGE   1
  250(bytes(0x04,0x08,0x6f,0x3a,0x0c,0x52,0x50,0x47,0x3a,0x3a,0x53,0x45,0x08,0x3a,0x0a,0x40,0x6e,0x61,0x6d,0x65,0x49,0x22,0x09,0x4d,0x6f,0x76,0x65,0x06,0x3a,0x06,0x45,0x54,0x3a,0x0b,0x40,0x70,0x69,0x74,0x63,0x68,0x69,0x69,0x3a,0x0c,0x40,0x76,0x6f,0x6c,0x75,0x6d,0x65,0x69,0x55))
  TeleportPlayer(0,2,116,137,2,0)
  0()



EVENT   6
 PAGE   1
  250(bytes(0x04,0x08,0x6f,0x3a,0x0c,0x52,0x50,0x47,0x3a,0x3a,0x53,0x45,0x08,0x3a,0x0a,0x40,0x6e,0x61,0x6d,0x65,0x49,0x22,0x09,0x4d,0x6f,0x76,0x65,0x06,0x3a,0x06,0x45,0x54,0x3a,0x0b,0x40,0x70,0x69,0x74,0x63,0x68,0x69,0x69,0x3a,0x0c,0x40,0x76,0x6f,0x6c,0x75,0x6d,0x65,0x69,0x55))
  TeleportPlayer(0,2,116,137,2,0)
  0()



EVENT   7
 PAGE   1
  250(bytes(0x04,0x08,0x6f,0x3a,0x0c,0x52,0x50,0x47,0x3a,0x3a,0x53,0x45,0x08,0x3a,0x0a,0x40,0x6e,0x61,0x6d,0x65,0x49,0x22,0x09,0x4d,0x6f,0x76,0x65,0x06,0x3a,0x06,0x45,0x54,0x3a,0x0b,0x40,0x70,0x69,0x74,0x63,0x68,0x69,0x69,0x3a,0x0c,0x40,0x76,0x6f,0x6c,0x75,0x6d,0x65,0x69,0x55))
  TeleportPlayer(0,2,116,137,2,0)
  0()



EVENT   8
 PAGE   1
  250(bytes(0x04,0x08,0x6f,0x3a,0x0c,0x52,0x50,0x47,0x3a,0x3a,0x53,0x45,0x08,0x3a,0x0a,0x40,0x6e,0x61,0x6d,0x65,0x49,0x22,0x09,0x4d,0x6f,0x76,0x65,0x06,0x3a,0x06,0x45,0x54,0x3a,0x0b,0x40,0x70,0x69,0x74,0x63,0x68,0x69,0x69,0x3a,0x0c,0x40,0x76,0x6f,0x6c,0x75,0x6d,0x65,0x69,0x55))
  TeleportPlayer(0,2,116,137,2,0)
  0()



EVENT   9
 PAGE   1
  217()
  If(0,6,0)
   ShowMessageFace("sonia_fc2",2,0,2,1)
   ShowMessage("\\n<Sonya>What's this fire doing here?")
   0()
  Else()
   ShowMessageFace("ruka_fc1",0,0,2,2)
   ShowMessage("\\n<Luka>What's this fire doing here?")
   0()
  EndIf()
  If(0,4,0)
   ShowMessageFace("alice_fc5",2,0,2,3)
   ShowMessage("\\n<Alice>I suppose anyone without the ability to manipulate fire won't be able to get past it. It's plainly obvious whose work this is.")
   0()
  EndIf()
  If(0,5,0)
   ShowMessageFace("iriasu_fc4",2,0,2,4)
   ShowMessage("\\n<Ilias>I suppose anyone without the ability to manipulate fire won't be able to get past it. It's as clear as day whose work this is.")
   0()
  EndIf()
  If(4,72,0)
   ShowMessageFace("phoenix_fc1",3,0,2,5)
   ShowMessage("\\n<Mini>Is it my turn to be useful?\n...Nope, I'm useless.")
   0()
  EndIf()
  If(1,1001,0,28,1)
   ShowMessageFace("salamander_fc1",0,0,2,6)
   ShowMessage("\\n<Salamander>Oh, were you referring to me?\nHmph, this is child's play.")
   250(bytes(0x04,0x08,0x6f,0x3a,0x0c,0x52,0x50,0x47,0x3a,0x3a,0x53,0x45,0x08,0x3a,0x0a,0x40,0x6e,0x61,0x6d,0x65,0x49,0x22,0x0a,0x46,0x69,0x72,0x65,0x32,0x06,0x3a,0x06,0x45,0x54,0x3a,0x0b,0x40,0x70,0x69,0x74,0x63,0x68,0x69,0x69,0x3a,0x0c,0x40,0x76,0x6f,0x6c,0x75,0x6d,0x65,0x69,0x55))
   ChangeSwitch(2159,2159,0)
   ShowMessageFace("",0,0,2,7)
   ShowMessage("Salamander extinguishes the flames blocking our path!")
   205(-1,bytes(0x04,0x08,0x6f,0x3a,0x13,0x52,0x50,0x47,0x3a,0x3a,0x4d,0x6f,0x76,0x65,0x52,0x6f,0x75,0x74,0x65,0x09,0x3a,0x0c,0x40,0x72,0x65,0x70,0x65,0x61,0x74,0x46,0x3a,0x0f,0x40,0x73,0x6b,0x69,0x70,0x70,0x61,0x62,0x6c,0x65,0x46,0x3a,0x0a,0x40,0x77,0x61,0x69,0x74,0x54,0x3a,0x0a,0x40,0x6c,0x69,0x73,0x74,0x5b,0x07,0x6f,0x3a,0x15,0x52,0x50,0x47,0x3a,0x3a,0x4d,0x6f,0x76,0x65,0x43,0x6f,0x6d,0x6d,0x61,0x6e,0x64,0x07,0x3a,0x0a,0x40,0x63,0x6f,0x64,0x65,0x69,0x18,0x3a,0x10,0x40,0x70,0x61,0x72,0x61,0x6d,0x65,0x74,0x65,0x72,0x73,0x5b,0x00,0x6f,0x3b,0x0a,0x07,0x3b,0x0b,0x69,0x00,0x3b,0x0c,0x5b,0x00))
   If(0,4,0)
    ShowMessageFace("alice_fc6",1,0,2,8)
    ShowMessage("\\n<Alice>All right, now that we've removed that hindrance, you can show yourself!")
    0()
   EndIf()
   If(0,5,0)
    ShowMessageFace("iriasu_fc4",7,0,2,9)
    ShowMessage("\\n<Ilias>All right, we've removed that hindrance!\nI know you're there, so show yourself!")
    0()
   EndIf()
   241(bytes(0x04,0x08,0x6f,0x3a,0x0d,0x52,0x50,0x47,0x3a,0x3a,0x42,0x47,0x4d,0x08,0x3a,0x0a,0x40,0x6e,0x61,0x6d,0x65,0x49,0x22,0x0f,0x73,0x68,0x69,0x72,0x6f,0x75,0x73,0x61,0x67,0x69,0x06,0x3a,0x06,0x45,0x54,0x3a,0x0c,0x40,0x76,0x6f,0x6c,0x75,0x6d,0x65,0x69,0x69,0x3a,0x0b,0x40,0x70,0x69,0x74,0x63,0x68,0x69,0x69))
   ChangeSwitch(2029,2029,0)
   250(bytes(0x04,0x08,0x6f,0x3a,0x0c,0x52,0x50,0x47,0x3a,0x3a,0x53,0x45,0x08,0x3a,0x0a,0x40,0x6e,0x61,0x6d,0x65,0x49,0x22,0x10,0x6d,0x6f,0x6e,0x5f,0x74,0x61,0x6d,0x61,0x6d,0x6f,0x32,0x06,0x3a,0x06,0x45,0x54,0x3a,0x0b,0x40,0x70,0x69,0x74,0x63,0x68,0x69,0x69,0x3a,0x0c,0x40,0x76,0x6f,0x6c,0x75,0x6d,0x65,0x69,0x55))
   205(11,bytes(0x04,0x08,0x6f,0x3a,0x13,0x52,0x50,0x47,0x3a,0x3a,0x4d,0x6f,0x76,0x65,0x52,0x6f,0x75,0x74,0x65,0x09,0x3a,0x0c,0x40,0x72,0x65,0x70,0x65,0x61,0x74,0x46,0x3a,0x0f,0x40,0x73,0x6b,0x69,0x70,0x70,0x61,0x62,0x6c,0x65,0x46,0x3a,0x0a,0x40,0x77,0x61,0x69,0x74,0x54,0x3a,0x0a,0x40,0x6c,0x69,0x73,0x74,0x5b,0x07,0x6f,0x3a,0x15,0x52,0x50,0x47,0x3a,0x3a,0x4d,0x6f,0x76,0x65,0x43,0x6f,0x6d,0x6d,0x61,0x6e,0x64,0x07,0x3a,0x0a,0x40,0x63,0x6f,0x64,0x65,0x69,0x13,0x3a,0x10,0x40,0x70,0x61,0x72,0x61,0x6d,0x65,0x74,0x65,0x72,0x73,0x5b,0x07,0x69,0x00,0x69,0x00,0x6f,0x3b,0x0a,0x07,0x3b,0x0b,0x69,0x00,0x3b,0x0c,0x5b,0x00))
   Wait(15)
   PictureDisplay(5,"80_sirousagi_st01",0,0,0,0,100,100,0,0)
   PictureMove(5,null,0,0,0,0,100,100,255,0,60,true)
   ShowMessageFace("sirousagi_fc1",0,0,2,10)
   ShowMessage("\\n<White Rabbit>Ta-dah!")
   If(0,6,0)
    ShowMessageFace("sonia_fc1",5,0,2,11)
    ShowMessage("\\n<Sonya>Of course this was your doing!")
    0()
   Else()
    ShowMessageFace("ruka_fc1",0,0,2,12)
    ShowMessage("\\n<Luka>Of course this was your doing!")
    0()
   EndIf()
   ShowMessageFace("sirousagi_fc1",0,0,2,13)
   ShowMessage("\\n<White Rabbit>Yeeeep! ♪")
   ShowMessage("And now you have the four spirits, as history dictates.")
   ShowMessageFace("sirousagi_fc1",0,0,2,14)
   ShowMessage("\\n<White Rabbit>You gathered the spirits thanks to the letter Marcellus left you, which meant that you weren't in need of my guidance.")
   ShowMessageFace("sirousagi_fc1",0,0,2,15)
   ShowMessage("\\n<White Rabbit>Could my entire existence be replaced with a notebook? Should I simply write down everything you need to do from this point on?")
   If(0,4,0)
    ShowMessageFace("alice_fc5",2,0,2,16)
    ShowMessage("\\n<Alice>That would certainly be a big help to us.\nSo your goal is to guide us along the correct history?")
    0()
   EndIf()
   If(0,5,0)
    ShowMessageFace("iriasu_fc4",7,0,2,17)
    ShowMessage("\\n<Ilias>If possible, that would be appreciated.\nSo your goal is to guide us along the correct history?")
    0()
   EndIf()
   ShowMessageFace("sirousagi_fc1",0,0,2,18)
   ShowMessage("\\n<White Rabbit>Sure, that's the gist of it.")
   ShowMessageFace("sirousagi_fc1",0,0,2,19)
   ShowMessage("\\n<White Rabbit>I believe you already know that the more this world deviates from the correct history, the faster chaos spreads.")
   ShowMessageFace("sirousagi_fc1",0,0,2,20)
   ShowMessage("\\n<White Rabbit>Which is why everyone is keeping their various schemes as close to the correct history as they can.")
   If(0,4,0)
    ShowMessageFace("alice_fc5",2,0,2,21)
    ShowMessage("\\n<Alice>Everyone?\nYou mean my mother, the Lilith Sisters, and even the Seraphim?")
    0()
   EndIf()
   If(0,5,0)
    ShowMessageFace("iriasu_fc4",7,0,2,22)
    ShowMessage("\\n<Ilias>Everyone?\nYou mean the Monster Lord, the Lilith Sisters, and even the Seraphim?")
    0()
   EndIf()
   ShowMessageFace("sirousagi_fc1",0,0,2,23)
   ShowMessage("\\n<White Rabbit>...That's right.\nTheir goals may differ, but they're trying to not disturb history too much.")
   ShowMessageFace("sirousagi_fc1",0,0,2,24)
   ShowMessage("\\n<White Rabbit>Hmm? Feels like someone is hot on my trail...\nChuuni glasses boy? The half-mecha father?\nBoth immediate family members of yours.")
   ShowMessageFace("sirousagi_fc1",0,0,2,25)
   ShowMessage("\\n<White Rabbit>They appear to consider me an enemy, but honestly, they can kill as many of me as they want, and it won't make any difference.")
   ShowMessageFace("sirousagi_fc1",0,0,2,26)
   ShowMessage("\\n<White Rabbit>I'm part of the natural order given form, not a person. Killing me is like trying to kill the Pythagorean theorem.")
   ShowMessageFace("sirousagi_fc1",0,0,2,27)
   ShowMessage("\\n<White Rabbit>No matter how much you try to break a right triangle, you can't change the fact that the square of the hypotenuse is equal to the sum of the squares of the other sides.")
   If(0,4,0)
    ShowMessageFace("alice_fc5",2,0,2,28)
    ShowMessage("\\n<Alice>What kind of useless, half-baked explanation is that?!")
    0()
   EndIf()
   If(0,5,0)
    ShowMessageFace("iriasu_fc4",2,0,2,29)
    ShowMessage("\\n<Ilias>Part of the natural order given form, not a person...\nSo you're like a general concept with a will of its own?")
    0()
   EndIf()
   ShowMessageFace("sirousagi_fc1",0,0,2,30)
   ShowMessage("\\n<White Rabbit>Welp, I like my head where it is right now, so I'm outta here! See you next tiiiiime! ♪")
   If(0,4,0)
    ShowMessageFace("alice_fc6",0,0,2,31)
    ShowMessage("\\n<Alice>Hey, wait!")
    0()
   EndIf()
   If(0,5,0)
    ShowMessageFace("iriasu_fc4",7,0,2,32)
    ShowMessage("\\n<Ilias>Don't you dare--")
    0()
   EndIf()
   PictureClear(5)
   Wait(60)
   250(bytes(0x04,0x08,0x6f,0x3a,0x0c,0x52,0x50,0x47,0x3a,0x3a,0x53,0x45,0x08,0x3a,0x0a,0x40,0x6e,0x61,0x6d,0x65,0x49,0x22,0x10,0x6d,0x6f,0x6e,0x5f,0x74,0x61,0x6d,0x61,0x6d,0x6f,0x32,0x06,0x3a,0x06,0x45,0x54,0x3a,0x0b,0x40,0x70,0x69,0x74,0x63,0x68,0x69,0x69,0x3a,0x0c,0x40,0x76,0x6f,0x6c,0x75,0x6d,0x65,0x69,0x55))
   205(11,bytes(0x04,0x08,0x6f,0x3a,0x13,0x52,0x50,0x47,0x3a,0x3a,0x4d,0x6f,0x76,0x65,0x52,0x6f,0x75,0x74,0x65,0x09,0x3a,0x0c,0x40,0x72,0x65,0x70,0x65,0x61,0x74,0x46,0x3a,0x0f,0x40,0x73,0x6b,0x69,0x70,0x70,0x61,0x62,0x6c,0x65,0x46,0x3a,0x0a,0x40,0x77,0x61,0x69,0x74,0x54,0x3a,0x0a,0x40,0x6c,0x69,0x73,0x74,0x5b,0x07,0x6f,0x3a,0x15,0x52,0x50,0x47,0x3a,0x3a,0x4d,0x6f,0x76,0x65,0x43,0x6f,0x6d,0x6d,0x61,0x6e,0x64,0x07,0x3a,0x0a,0x40,0x63,0x6f,0x64,0x65,0x69,0x13,0x3a,0x10,0x40,0x70,0x61,0x72,0x61,0x6d,0x65,0x74,0x65,0x72,0x73,0x5b,0x07,0x69,0x00,0x69,0x00,0x6f,0x3b,0x0a,0x07,0x3b,0x0b,0x69,0x00,0x3b,0x0c,0x5b,0x00))
   ChangeSwitch(2029,2029,1)
   241(bytes(0x04,0x08,0x6f,0x3a,0x0d,0x52,0x50,0x47,0x3a,0x3a,0x42,0x47,0x4d,0x08,0x3a,0x0a,0x40,0x6e,0x61,0x6d,0x65,0x49,0x22,0x0a,0x6f,0x6f,0x61,0x6e,0x61,0x06,0x3a,0x06,0x45,0x54,0x3a,0x0c,0x40,0x76,0x6f,0x6c,0x75,0x6d,0x65,0x69,0x69,0x3a,0x0b,0x40,0x70,0x69,0x74,0x63,0x68,0x69,0x69))
   If(0,6,0)
    ShowMessageFace("sonia_fc2",2,0,2,33)
    ShowMessage("\\n<Sonya>She's gone...")
    0()
   Else()
    ShowMessageFace("ruka_fc1",0,0,2,34)
    ShowMessage("\\n<Luka>She's gone...")
    0()
   EndIf()
   If(0,4,0)
    ShowMessageFace("alice_fc5",2,0,2,35)
    ShowMessage("\\n<Alice>Hmph, I don't think we'll ever get an explanation out of her. Anyway, let's descend into the rift!")
    0()
   EndIf()
   If(0,5,0)
    ShowMessageFace("iriasu_fc4",7,0,2,36)
    ShowMessage("\\n<Ilias>We do not have time to waste on that thing anyway. Let's head down into the rift!")
    0()
   EndIf()
   If(4,41,0)
    ShowMessageFace("stein_fc2",1,0,2,37)
    ShowMessage("\\n<Promestein>I'm giddy at the prospects of what we might find down there. ♪")
    0()
   EndIf()
   If(4,79,0)
    ShowMessageFace("nuruko_fc1",0,0,2,38)
    ShowMessage("\\n<Nuruko>Kyu kyuu!!")
    0()
   EndIf()
   EndEventProcessing()
   0()
  Else()
   ShowMessageFace("ruka_fc1",0,0,2,39)
   ShowMessage("\\n<Luka>Someone who manipulates fire? The fire spirit Salamander? It seems we'll have to form a contract with her before proceeding.")
   If(0,4,0)
    ShowMessageFace("alice_fc5",3,0,2,40)
    ShowMessage("\\n<Alice>Is this part of that damn rabbit's guidance? I don't like it...")
    0()
   EndIf()
   If(0,5,0)
    ShowMessageFace("iriasu_fc4",2,0,2,41)
    ShowMessage("\\n<Ilias>Guiding us again, White Rabbit?\nI don't like this one bit...")
    0()
   EndIf()
   0()
  EndIf()
  0()
 PAGE   2
  // condition: switch 2159 is ON
  0()



EVENT   10
 PAGE   1
  ChangeSelfSwitch("A",0)
  If(0,4,0)
   ShowMessageFace("alice_fc5",2,0,2,1)
   ShowMessage("\\n<Alice>We finally made it...\nNow let's start investigating.")
   0()
  EndIf()
  If(0,5,0)
   ShowMessageFace("iriasu_fc4",0,0,2,2)
   ShowMessage("\\n<Ilias>So we finally made it...\nAll right, let's explore this rift.")
   0()
  EndIf()
  ShowMessageFace("ruka_fc1",0,0,2,3)
  ShowMessage("\\n<Luka>I wonder what kind of parallel world this one connects to and whether we might run into my father there, too...")
  If(4,185,0)
   ShowMessageFace("radio_fc1",0,0,2,4)
   ShowMessage("\\n<Radio>Let's go-go-go...")
   0()
  EndIf()
  0()
 PAGE   2
  // condition: self-switch A is ON
  0()



EVENT   11
 PAGE   1
  // condition: switch 2029 is ON
  0()
