﻿
DisplayName "MS Gloria"



EVENT   1
 PAGE   1
  0()



EVENT   2
 PAGE   1
  0()



EVENT   3
 PAGE   1
  0()



EVENT   4
 PAGE   1
  0()



EVENT   5
 PAGE   1
  0()



EVENT   6
 PAGE   1
  0()



EVENT   7
 PAGE   1
  0()



EVENT   8
 PAGE   1
  0()



EVENT   9
 PAGE   1
  0()



EVENT   10
 PAGE   1
  0()



EVENT   11
 PAGE   1
  0()



EVENT   12
 PAGE   1
  0()



EVENT   13
 PAGE   1
  0()



EVENT   14
 PAGE   1
  0()



EVENT   15
 PAGE   1
  0()



EVENT   16
 PAGE   1
  0()



EVENT   17
 PAGE   1
  0()



EVENT   18
 PAGE   1
  0()



EVENT   19
 PAGE   1
  0()



EVENT   20
 PAGE   1
  0()



EVENT   21
 PAGE   1
  0()



EVENT   22
 PAGE   1
  0()



EVENT   23
 PAGE   1
  0()



EVENT   24
 PAGE   1
  0()



EVENT   25
 PAGE   1
  0()



EVENT   26
 PAGE   1
  0()



EVENT   27
 PAGE   1
  0()



EVENT   28
 PAGE   1
  0()



EVENT   29
 PAGE   1
  0()



EVENT   30
 PAGE   1
  0()



EVENT   31
 PAGE   1
  0()



EVENT   32
 PAGE   1
  0()



EVENT   33
 PAGE   1
  0()



EVENT   34
 PAGE   1
  0()



EVENT   35
 PAGE   1
  0()



EVENT   36
 PAGE   1
  0()



EVENT   37
 PAGE   1
  0()



EVENT   38
 PAGE   1
  0()



EVENT   39
 PAGE   1
  0()



EVENT   40
 PAGE   1
  0()



EVENT   41
 PAGE   1
  0()



EVENT   42
 PAGE   1
  0()



EVENT   43
 PAGE   1
  0()



EVENT   44
 PAGE   1
  0()



EVENT   45
 PAGE   1
  0()



EVENT   46
 PAGE   1
  0()



EVENT   47
 PAGE   1
  0()



EVENT   48
 PAGE   1
  0()



EVENT   49
 PAGE   1
  0()



EVENT   50
 PAGE   1
  0()



EVENT   51
 PAGE   1
  281(0)
  250(bytes(0x04,0x08,0x6f,0x3a,0x0c,0x52,0x50,0x47,0x3a,0x3a,0x53,0x45,0x08,0x3a,0x0a,0x40,0x6e,0x61,0x6d,0x65,0x49,0x22,0x09,0x4d,0x6f,0x76,0x65,0x06,0x3a,0x06,0x45,0x54,0x3a,0x0b,0x40,0x70,0x69,0x74,0x63,0x68,0x69,0x69,0x3a,0x0c,0x40,0x76,0x6f,0x6c,0x75,0x6d,0x65,0x69,0x55))
  TeleportPlayer(0,478,12,32,0,0)
  0()



EVENT   52
 PAGE   1
  ShowMessageFace("",0,0,2,1)
  ShowMessage("扉は閉ざされている……")
  0()



EVENT   53
 PAGE   1
  If(1,836,0,2,1)
   If(0,1585,1)
    ShowMessageFace("mob_kaizoku3_fc1",1,0,2,1)
    ShowMessage("\\n<グロリア>海賊稼業も飽きてきたねぇ……")
    ShowMessage("あんた、養ってくれるかい？")
    ShowChoices(strings("仲間にする","仲間にしない"),0)
    IfPlayerPicksChoice(0,null)
     ShowMessageFace("mob_kaizoku3_fc1",0,0,2,2)
     ShowMessage("\\n<グロリア>それじゃあ、よろしく頼むよ。")
     ShowMessage("さっそく今晩は宴といくかねぇ……")
     PictureClear(5)
     205(0,bytes(0x04,0x08,0x6f,0x3a,0x13,0x52,0x50,0x47,0x3a,0x3a,0x4d,0x6f,0x76,0x65,0x52,0x6f,0x75,0x74,0x65,0x09,0x3a,0x0c,0x40,0x72,0x65,0x70,0x65,0x61,0x74,0x46,0x3a,0x0f,0x40,0x73,0x6b,0x69,0x70,0x70,0x61,0x62,0x6c,0x65,0x46,0x3a,0x0a,0x40,0x77,0x61,0x69,0x74,0x54,0x3a,0x0a,0x40,0x6c,0x69,0x73,0x74,0x5b,0x09,0x6f,0x3a,0x15,0x52,0x50,0x47,0x3a,0x3a,0x4d,0x6f,0x76,0x65,0x43,0x6f,0x6d,0x6d,0x61,0x6e,0x64,0x07,0x3a,0x0a,0x40,0x63,0x6f,0x64,0x65,0x69,0x2a,0x3a,0x10,0x40,0x70,0x61,0x72,0x61,0x6d,0x65,0x74,0x65,0x72,0x73,0x5b,0x00,0x6f,0x3b,0x0a,0x07,0x3b,0x0b,0x69,0x0f,0x3b,0x0c,0x5b,0x00,0x6f,0x3b,0x0a,0x07,0x3b,0x0b,0x69,0x2c,0x3b,0x0c,0x5b,0x00,0x6f,0x3b,0x0a,0x07,0x3b,0x0b,0x69,0x00,0x3b,0x0c,0x5b,0x00))
     355("add_actor_ex(585)")
     249(bytes(0x04,0x08,0x6f,0x3a,0x0c,0x52,0x50,0x47,0x3a,0x3a,0x4d,0x45,0x08,0x3a,0x0a,0x40,0x6e,0x61,0x6d,0x65,0x49,0x22,0x0c,0x66,0x61,0x6e,0x66,0x61,0x6c,0x65,0x06,0x3a,0x06,0x45,0x54,0x3a,0x0b,0x40,0x70,0x69,0x74,0x63,0x68,0x69,0x69,0x3a,0x0c,0x40,0x76,0x6f,0x6c,0x75,0x6d,0x65,0x69,0x69))
     ShowMessageFace("",0,0,2,3)
     ShowMessage("グロリアが仲間に加わった！")
     Wait(60)
     ShowMessageFace("mob_kaizoku3_fc1",1,0,2,4)
     ShowMessage("\\n<グロリア>それと、これを受け取りな。")
     ShowMessage("手に入れたのは良いものの、あたしには少しばかり重くてね……")
     250(bytes(0x04,0x08,0x6f,0x3a,0x0c,0x52,0x50,0x47,0x3a,0x3a,0x53,0x45,0x08,0x3a,0x0a,0x40,0x6e,0x61,0x6d,0x65,0x49,0x22,0x0a,0x49,0x74,0x65,0x6d,0x31,0x06,0x3a,0x06,0x45,0x54,0x3a,0x0b,0x40,0x70,0x69,0x74,0x63,0x68,0x69,0x69,0x3a,0x0c,0x40,0x76,0x6f,0x6c,0x75,0x6d,0x65,0x69,0x55))
     ChangeInventory_Item(633,0,0,1)
     If(0,2148,0)
      ShowMessageFace("tatunoko_k_fc1",1,0,2,5)
      ShowMessage("\\n<Tatsuko>あたしも海賊大将に出世できるのです！")
      0()
     EndIf()
     If(0,2149,0)
      ShowMessageFace("bonny_fc1",1,0,2,6)
      ShowMessage("\\n<Bonnie>おおっ！")
      ShowMessage("これであたしも、海賊王だ！")
      0()
     EndIf()
     EndEventProcessing()
     0()
    IfPlayerPicksChoice(1,null)
     ShowMessageFace("mob_kaizoku3_fc1",1,0,2,7)
     ShowMessage("\\n<グロリア>そう上手くはいかないか……")
     0()
    404()
    0()
   EndIf()
   0()
  EndIf()
  RunCommonEvent(7351)
  0()
 PAGE   2
  // condition: variable 1089 >= 2
  // condition: party contains actor #585
  0()



EVENT   54
 PAGE   1
  If(1,834,0,2,1)
   If(0,1583,1)
    ShowMessageFace("mob_kaizoku1_fc1",0,0,2,1)
    ShowMessage("\\n<アリアドネ>なぁ、あたしも連れて行ってくれよ！")
    ShowChoices(strings("仲間にする","仲間にしない"),0)
    IfPlayerPicksChoice(0,null)
     ShowMessageFace("mob_kaizoku1_fc1",1,0,2,2)
     ShowMessage("\\n<アリアドネ>よっしゃ、暴れるぜ～！")
     PictureClear(5)
     205(0,bytes(0x04,0x08,0x6f,0x3a,0x13,0x52,0x50,0x47,0x3a,0x3a,0x4d,0x6f,0x76,0x65,0x52,0x6f,0x75,0x74,0x65,0x09,0x3a,0x0c,0x40,0x72,0x65,0x70,0x65,0x61,0x74,0x46,0x3a,0x0f,0x40,0x73,0x6b,0x69,0x70,0x70,0x61,0x62,0x6c,0x65,0x46,0x3a,0x0a,0x40,0x77,0x61,0x69,0x74,0x54,0x3a,0x0a,0x40,0x6c,0x69,0x73,0x74,0x5b,0x09,0x6f,0x3a,0x15,0x52,0x50,0x47,0x3a,0x3a,0x4d,0x6f,0x76,0x65,0x43,0x6f,0x6d,0x6d,0x61,0x6e,0x64,0x07,0x3a,0x0a,0x40,0x63,0x6f,0x64,0x65,0x69,0x2a,0x3a,0x10,0x40,0x70,0x61,0x72,0x61,0x6d,0x65,0x74,0x65,0x72,0x73,0x5b,0x00,0x6f,0x3b,0x0a,0x07,0x3b,0x0b,0x69,0x0f,0x3b,0x0c,0x5b,0x00,0x6f,0x3b,0x0a,0x07,0x3b,0x0b,0x69,0x2c,0x3b,0x0c,0x5b,0x00,0x6f,0x3b,0x0a,0x07,0x3b,0x0b,0x69,0x00,0x3b,0x0c,0x5b,0x00))
     355("add_actor_ex(583)")
     249(bytes(0x04,0x08,0x6f,0x3a,0x0c,0x52,0x50,0x47,0x3a,0x3a,0x4d,0x45,0x08,0x3a,0x0a,0x40,0x6e,0x61,0x6d,0x65,0x49,0x22,0x0c,0x66,0x61,0x6e,0x66,0x61,0x6c,0x65,0x06,0x3a,0x06,0x45,0x54,0x3a,0x0b,0x40,0x70,0x69,0x74,0x63,0x68,0x69,0x69,0x3a,0x0c,0x40,0x76,0x6f,0x6c,0x75,0x6d,0x65,0x69,0x69))
     ShowMessageFace("",0,0,2,3)
     ShowMessage("アリアドネが仲間に加わった！")
     Wait(60)
     EndEventProcessing()
     0()
    IfPlayerPicksChoice(1,null)
     ShowMessageFace("mob_kaizoku1_fc1",0,0,2,4)
     ShowMessage("\\n<アリアドネ>なんだよ、ケチだな～！")
     0()
    404()
    0()
   EndIf()
   0()
  EndIf()
  RunCommonEvent(7331)
  0()
 PAGE   2
  // condition: variable 1089 >= 2
  // condition: party contains actor #583
  0()



EVENT   55
 PAGE   1
  If(1,835,0,2,1)
   If(0,1584,1)
    ShowMessageFace("mob_kaizoku2_fc1",0,0,2,1)
    ShowMessage("\\n<クレスタ>ねぇ、あたしを連れて行かない？")
    ShowMessage("射撃の腕は、一流だよっ！")
    ShowChoices(strings("仲間にする","仲間にしない"),0)
    IfPlayerPicksChoice(0,null)
     ShowMessageFace("mob_kaizoku2_fc1",0,0,2,2)
     ShowMessage("\\n<クレスタ>百発百中の腕、見せてあげる♪")
     PictureClear(5)
     205(0,bytes(0x04,0x08,0x6f,0x3a,0x13,0x52,0x50,0x47,0x3a,0x3a,0x4d,0x6f,0x76,0x65,0x52,0x6f,0x75,0x74,0x65,0x09,0x3a,0x0c,0x40,0x72,0x65,0x70,0x65,0x61,0x74,0x46,0x3a,0x0f,0x40,0x73,0x6b,0x69,0x70,0x70,0x61,0x62,0x6c,0x65,0x46,0x3a,0x0a,0x40,0x77,0x61,0x69,0x74,0x54,0x3a,0x0a,0x40,0x6c,0x69,0x73,0x74,0x5b,0x09,0x6f,0x3a,0x15,0x52,0x50,0x47,0x3a,0x3a,0x4d,0x6f,0x76,0x65,0x43,0x6f,0x6d,0x6d,0x61,0x6e,0x64,0x07,0x3a,0x0a,0x40,0x63,0x6f,0x64,0x65,0x69,0x2a,0x3a,0x10,0x40,0x70,0x61,0x72,0x61,0x6d,0x65,0x74,0x65,0x72,0x73,0x5b,0x00,0x6f,0x3b,0x0a,0x07,0x3b,0x0b,0x69,0x0f,0x3b,0x0c,0x5b,0x00,0x6f,0x3b,0x0a,0x07,0x3b,0x0b,0x69,0x2c,0x3b,0x0c,0x5b,0x00,0x6f,0x3b,0x0a,0x07,0x3b,0x0b,0x69,0x00,0x3b,0x0c,0x5b,0x00))
     355("add_actor_ex(584)")
     249(bytes(0x04,0x08,0x6f,0x3a,0x0c,0x52,0x50,0x47,0x3a,0x3a,0x4d,0x45,0x08,0x3a,0x0a,0x40,0x6e,0x61,0x6d,0x65,0x49,0x22,0x0c,0x66,0x61,0x6e,0x66,0x61,0x6c,0x65,0x06,0x3a,0x06,0x45,0x54,0x3a,0x0b,0x40,0x70,0x69,0x74,0x63,0x68,0x69,0x69,0x3a,0x0c,0x40,0x76,0x6f,0x6c,0x75,0x6d,0x65,0x69,0x69))
     ShowMessageFace("",0,0,2,3)
     ShowMessage("クレスタが仲間に加わった！")
     Wait(60)
     EndEventProcessing()
     0()
    IfPlayerPicksChoice(1,null)
     ShowMessageFace("mob_kaizoku2_fc1",1,0,2,4)
     ShowMessage("\\n<クレスタ>ふーん、そうなんだ……")
     0()
    404()
    0()
   EndIf()
   0()
  EndIf()
  RunCommonEvent(7341)
  0()
 PAGE   2
  // condition: variable 1089 >= 2
  // condition: party contains actor #584
  0()



EVENT   56
 PAGE   1
  ChangeSelfSwitch("A",0)
  PictureDisplay(5,"80_mob_kaizoku3_st01",0,0,0,0,100,100,0,0)
  PictureMove(5,null,0,0,0,0,100,100,255,0,30,true)
  ShowMessageFace("mob_kaizoku3_fc1",1,0,2,1)
  ShowMessage("\\n<グロリア>ふふっ、よく来たねぇ……")
  ShowMessage("あたしがグロリア海賊団の団長、グロリアさ。")
  PictureDisplay(5,"80_mob_kaizoku1_st01",0,0,-150,0,100,100,255,0)
  PictureDisplay(6,"80_mob_kaizoku2_st01",0,0,150,0,100,100,255,0)
  ShowMessageFace("mob_kaizoku1_fc1",0,0,2,2)
  ShowMessage("\\n<アリアドネ>そして、あたしはアリアドネ！")
  ShowMessage("グロリア海賊団の突撃隊長だぜ！")
  ShowMessageFace("mob_kaizoku2_fc1",0,0,2,3)
  ShowMessage("\\n<クレスタ>私はクレスタ、よろしくね。")
  ShowMessage("これでも砲術長だよっ！")
  PictureClear(6)
  PictureDisplay(5,"80_mob_kaizoku3_st01",0,0,0,0,100,100,255,0)
  If(0,2148,0)
   ShowMessageFace("tatunoko_k_fc1",1,0,2,4)
   ShowMessage("\\n<Tatsuko>グロリア海賊団、潔くお縄につくのです！")
   ShowMessageFace("umiusi_k_fc1",0,0,2,5)
   ShowMessage("\\n<Stacy>こちらの方が、戦力は上です。")
   ShowMessage("大人しく降伏した方が良いですよ……？")
   0()
  EndIf()
  If(0,2149,0)
   ShowMessageFace("bonny_fc1",0,0,2,6)
   ShowMessage("\\n<Bonnie>久しぶりだな、グロリア！")
   ShowMessage("しかし今のおさかな海賊団は、かつての我等とは全く違うぞ！")
   ShowMessageFace("ashel_fc1",1,0,2,7)
   ShowMessage("\\n<Ashel>世界を股にかけた冒険で、あたし達は格段に腕を上げたんだ。")
   ShowMessage("はっきり言って、今さらあんた達には負けたりしないよ。")
   0()
  EndIf()
  ShowMessageFace("mob_kaizoku3_fc1",1,0,2,8)
  ShowMessage("\\n<グロリア>確かに、あたし達はしょせん人間だ。")
  ShowMessage("あんた達とまともにぶつかって、勝てる道理はないねぇ。")
  ShowMessageFace("mob_kaizoku3_fc1",1,0,2,9)
  ShowMessage("\\n<グロリア>……そこで、正々堂々とバトルファックで決闘さ。")
  ShowMessage("相手は、そっちの勇者君を指名するよ！")
  ShowMessageFace("ruka_fc1",0,0,2,10)
  ShowMessage("\\n<Luka>……えっ！？　僕！？")
  PictureDisplay(5,"80_mob_kaizoku1_st01",0,0,-150,0,100,100,255,0)
  PictureDisplay(6,"80_mob_kaizoku2_st01",0,0,150,0,100,100,255,0)
  ShowMessageFace("mob_kaizoku1_fc1",0,0,2,11)
  ShowMessage("\\n<アリアドネ>まずは、あたし達と勝負だぜ！")
  ShowMessageFace("mob_kaizoku2_fc1",0,0,2,12)
  ShowMessage("\\n<クレスタ>アリアドネと私を打ち破れば、グロリア団長に挑戦できるんだ。")
  ShowMessage("真打ちは、やっぱり一番最後だよね。")
  PictureClear(6)
  PictureDisplay(5,"80_mob_kaizoku3_st01",0,0,0,0,100,100,255,0)
  ShowMessageFace("mob_kaizoku3_fc1",1,0,2,13)
  ShowMessage("\\n<グロリア>さあ、どうする？")
  ShowMessage("私達とバトルファックで勝負するかい……？")
  ShowChoices(strings("受けて立つ","断る"),0)
  IfPlayerPicksChoice(0,null)
   ShowMessageFace("ruka_fc1",0,0,2,14)
   ShowMessage("\\n<Luka>分かった、受けて立つ！")
   If(0,6,0)
    ShowMessageFace("sonia_fc1",5,0,2,15)
    ShowMessage("\\n<Sonya>……………………")
    0()
   EndIf()
   0()
  IfPlayerPicksChoice(1,null)
   ShowMessageFace("ruka_fc1",0,0,2,16)
   ShowMessage("\\n<Luka>断る！")
   If(0,2148,0)
    ShowMessageFace("mob_kaizoku3_fc1",1,0,2,17)
    ShowMessage("\\n<グロリア>なら、ハーピーの羽根で逃走するまでさ。")
    ShowMessage("再びあたし達の船を見つけるまで、どのくらいかかるだろうね？")
    ShowMessageFace("tatunoko_k_fc1",2,0,2,18)
    ShowMessage("\\n<Tatsuko>それは困るのです……")
    ShowMessage("バトルファック勝負に応じた方が良いのです。")
    0()
   EndIf()
   If(0,2149,0)
    ShowMessageFace("mob_kaizoku3_fc1",1,0,2,19)
    ShowMessage("\\n<グロリア>おさかな海賊団は、あたし達の挑戦から逃げるわけだね……")
    ShowMessage("こりゃ、ずいぶんと名を落とす事になるねぇ。")
    ShowMessageFace("bonny_fc1",0,0,2,20)
    ShowMessage("\\n<Bonnie>そ、それはまずい！")
    ShowMessage("ルカよ、バトルファック勝負に応じるのだ！")
    0()
   EndIf()
   0()
  404()
  ShowMessageFace("mob_kaizoku3_fc1",0,0,2,21)
  ShowMessage("\\n<グロリア>そう来なくっちゃねぇ……")
  ShowMessage("それじゃあ、まずはアリアドネとクレスタが相手をするよ！")
  PictureDisplay(5,"80_mob_kaizoku1_st01",0,0,-150,0,100,100,255,0)
  PictureDisplay(6,"80_mob_kaizoku2_st01",0,0,150,0,100,100,255,0)
  ShowMessageFace("mob_kaizoku1_fc1",0,0,2,22)
  ShowMessage("\\n<アリアドネ>バトルファックなら、負ける気がしないぜ！")
  ShowMessage("噂の勇者、あたしのテクニックでイかせてやるよ！")
  ShowMessageFace("mob_kaizoku2_fc1",0,0,2,23)
  ShowMessage("\\n<クレスタ>お手柔らかにお願いね～！")
  ShowMessage("まあ、すぐイっちゃうだろうけど……")
  PictureClear(5)
  PictureClear(6)
  EndEventProcessing()
  0()
 PAGE   2
  // condition: self-switch A is ON
  0()

EVENT   67
 PAGE   1
  // condition: switch 2149 is ON
  ShowMessageFace("k_mermaid_fc1",0,0,2,1)
  ShowMessage("\\n<海賊マーメイド>陸に戻る？")
  ShowChoices(strings("Stay","Return"),1)
  IfPlayerPicksChoice(0,null)
   EndEventProcessing()
   0()
  IfPlayerPicksChoice(1,null)
   221()
   250(bytes(0x04,0x08,0x6f,0x3a,0x0c,0x52,0x50,0x47,0x3a,0x3a,0x53,0x45,0x08,0x3a,0x0a,0x40,0x6e,0x61,0x6d,0x65,0x49,0x22,0x0b,0x57,0x61,0x74,0x65,0x72,0x31,0x06,0x3a,0x06,0x45,0x54,0x3a,0x0b,0x40,0x70,0x69,0x74,0x63,0x68,0x69,0x69,0x3a,0x0c,0x40,0x76,0x6f,0x6c,0x75,0x6d,0x65,0x69,0x55))
   Wait(60)
   TeleportPlayer(0,2,335,240,4,2)
   TeleportVehicle(1,0,2,334,240)
   222()
   EndEventProcessing()
   0()
  404()
  0()
 PAGE   2
  // condition: switch 2148 is ON
  ShowMessageFace("tatunoko_k_fc1",0,0,2,1)
  ShowMessage("\\n<たつのこ海兵>陸に戻るのですか？")
  ShowChoices(strings("Stay","Return"),1)
  IfPlayerPicksChoice(0,null)
   EndEventProcessing()
   0()
  IfPlayerPicksChoice(1,null)
   221()
   250(bytes(0x04,0x08,0x6f,0x3a,0x0c,0x52,0x50,0x47,0x3a,0x3a,0x53,0x45,0x08,0x3a,0x0a,0x40,0x6e,0x61,0x6d,0x65,0x49,0x22,0x0b,0x57,0x61,0x74,0x65,0x72,0x31,0x06,0x3a,0x06,0x45,0x54,0x3a,0x0b,0x40,0x70,0x69,0x74,0x63,0x68,0x69,0x69,0x3a,0x0c,0x40,0x76,0x6f,0x6c,0x75,0x6d,0x65,0x69,0x55))
   Wait(60)
   TeleportPlayer(0,2,335,240,4,2)
   TeleportVehicle(1,0,2,334,240)
   222()
   EndEventProcessing()
   0()
  404()
  0()


