﻿


EVENT   1
 PAGE   1
  281(1)
  250(bytes(0x04,0x08,0x6f,0x3a,0x0c,0x52,0x50,0x47,0x3a,0x3a,0x53,0x45,0x08,0x3a,0x0a,0x40,0x6e,0x61,0x6d,0x65,0x49,0x22,0x09,0x4d,0x6f,0x76,0x65,0x06,0x3a,0x06,0x45,0x54,0x3a,0x0b,0x40,0x70,0x69,0x74,0x63,0x68,0x69,0x69,0x3a,0x0c,0x40,0x76,0x6f,0x6c,0x75,0x6d,0x65,0x69,0x55))
  TeleportPlayer(0,719,35,45,0,0)
  0()



EVENT   2
 PAGE   1
  281(1)
  250(bytes(0x04,0x08,0x6f,0x3a,0x0c,0x52,0x50,0x47,0x3a,0x3a,0x53,0x45,0x08,0x3a,0x0a,0x40,0x6e,0x61,0x6d,0x65,0x49,0x22,0x09,0x4d,0x6f,0x76,0x65,0x06,0x3a,0x06,0x45,0x54,0x3a,0x0b,0x40,0x70,0x69,0x74,0x63,0x68,0x69,0x69,0x3a,0x0c,0x40,0x76,0x6f,0x6c,0x75,0x6d,0x65,0x69,0x55))
  TeleportPlayer(0,719,6,39,0,0)
  0()



EVENT   3
 PAGE   1
  0()



EVENT   4
 PAGE   1
  0()



EVENT   5
 PAGE   1
  281(1)
  250(bytes(0x04,0x08,0x6f,0x3a,0x0c,0x52,0x50,0x47,0x3a,0x3a,0x53,0x45,0x08,0x3a,0x0a,0x40,0x6e,0x61,0x6d,0x65,0x49,0x22,0x09,0x4d,0x6f,0x76,0x65,0x06,0x3a,0x06,0x45,0x54,0x3a,0x0b,0x40,0x70,0x69,0x74,0x63,0x68,0x69,0x69,0x3a,0x0c,0x40,0x76,0x6f,0x6c,0x75,0x6d,0x65,0x69,0x55))
  TeleportPlayer(0,719,30,30,0,0)
  0()



EVENT   6
 PAGE   1
  281(1)
  250(bytes(0x04,0x08,0x6f,0x3a,0x0c,0x52,0x50,0x47,0x3a,0x3a,0x53,0x45,0x08,0x3a,0x0a,0x40,0x6e,0x61,0x6d,0x65,0x49,0x22,0x09,0x4d,0x6f,0x76,0x65,0x06,0x3a,0x06,0x45,0x54,0x3a,0x0b,0x40,0x70,0x69,0x74,0x63,0x68,0x69,0x69,0x3a,0x0c,0x40,0x76,0x6f,0x6c,0x75,0x6d,0x65,0x69,0x55))
  TeleportPlayer(0,719,30,30,0,0)
  0()



EVENT   7
 PAGE   1
  281(1)
  250(bytes(0x04,0x08,0x6f,0x3a,0x0c,0x52,0x50,0x47,0x3a,0x3a,0x53,0x45,0x08,0x3a,0x0a,0x40,0x6e,0x61,0x6d,0x65,0x49,0x22,0x09,0x4d,0x6f,0x76,0x65,0x06,0x3a,0x06,0x45,0x54,0x3a,0x0b,0x40,0x70,0x69,0x74,0x63,0x68,0x69,0x69,0x3a,0x0c,0x40,0x76,0x6f,0x6c,0x75,0x6d,0x65,0x69,0x55))
  TeleportPlayer(0,719,30,30,0,0)
  0()



EVENT   8
 PAGE   1
  250(bytes(0x04,0x08,0x6f,0x3a,0x0c,0x52,0x50,0x47,0x3a,0x3a,0x53,0x45,0x08,0x3a,0x0a,0x40,0x6e,0x61,0x6d,0x65,0x49,0x22,0x09,0x4d,0x6f,0x76,0x65,0x06,0x3a,0x06,0x45,0x54,0x3a,0x0b,0x40,0x70,0x69,0x74,0x63,0x68,0x69,0x69,0x3a,0x0c,0x40,0x76,0x6f,0x6c,0x75,0x6d,0x65,0x69,0x55))
  TeleportPlayer(0,720,66,49,8,0)
  0()



EVENT   9
 PAGE   1
  250(bytes(0x04,0x08,0x6f,0x3a,0x0c,0x52,0x50,0x47,0x3a,0x3a,0x53,0x45,0x08,0x3a,0x0a,0x40,0x6e,0x61,0x6d,0x65,0x49,0x22,0x09,0x4d,0x6f,0x76,0x65,0x06,0x3a,0x06,0x45,0x54,0x3a,0x0b,0x40,0x70,0x69,0x74,0x63,0x68,0x69,0x69,0x3a,0x0c,0x40,0x76,0x6f,0x6c,0x75,0x6d,0x65,0x69,0x55))
  TeleportPlayer(0,720,66,49,8,0)
  0()



EVENT   10
 PAGE   1
  250(bytes(0x04,0x08,0x6f,0x3a,0x0c,0x52,0x50,0x47,0x3a,0x3a,0x53,0x45,0x08,0x3a,0x0a,0x40,0x6e,0x61,0x6d,0x65,0x49,0x22,0x09,0x4d,0x6f,0x76,0x65,0x06,0x3a,0x06,0x45,0x54,0x3a,0x0b,0x40,0x70,0x69,0x74,0x63,0x68,0x69,0x69,0x3a,0x0c,0x40,0x76,0x6f,0x6c,0x75,0x6d,0x65,0x69,0x55))
  TeleportPlayer(0,720,66,19,2,0)
  0()



EVENT   11
 PAGE   1
  250(bytes(0x04,0x08,0x6f,0x3a,0x0c,0x52,0x50,0x47,0x3a,0x3a,0x53,0x45,0x08,0x3a,0x0a,0x40,0x6e,0x61,0x6d,0x65,0x49,0x22,0x09,0x4d,0x6f,0x76,0x65,0x06,0x3a,0x06,0x45,0x54,0x3a,0x0b,0x40,0x70,0x69,0x74,0x63,0x68,0x69,0x69,0x3a,0x0c,0x40,0x76,0x6f,0x6c,0x75,0x6d,0x65,0x69,0x55))
  TeleportPlayer(0,720,66,19,2,0)
  0()



EVENT   12
 PAGE   1
  250(bytes(0x04,0x08,0x6f,0x3a,0x0c,0x52,0x50,0x47,0x3a,0x3a,0x53,0x45,0x08,0x3a,0x0a,0x40,0x6e,0x61,0x6d,0x65,0x49,0x22,0x09,0x4d,0x6f,0x76,0x65,0x06,0x3a,0x06,0x45,0x54,0x3a,0x0b,0x40,0x70,0x69,0x74,0x63,0x68,0x69,0x69,0x3a,0x0c,0x40,0x76,0x6f,0x6c,0x75,0x6d,0x65,0x69,0x55))
  TeleportPlayer(0,720,20,44,0,0)
  0()



EVENT   13
 PAGE   1
  250(bytes(0x04,0x08,0x6f,0x3a,0x0c,0x52,0x50,0x47,0x3a,0x3a,0x53,0x45,0x08,0x3a,0x0a,0x40,0x6e,0x61,0x6d,0x65,0x49,0x22,0x09,0x4d,0x6f,0x76,0x65,0x06,0x3a,0x06,0x45,0x54,0x3a,0x0b,0x40,0x70,0x69,0x74,0x63,0x68,0x69,0x69,0x3a,0x0c,0x40,0x76,0x6f,0x6c,0x75,0x6d,0x65,0x69,0x55))
  TeleportPlayer(0,720,20,44,0,0)
  0()



EVENT   14
 PAGE   1
  250(bytes(0x04,0x08,0x6f,0x3a,0x0c,0x52,0x50,0x47,0x3a,0x3a,0x53,0x45,0x08,0x3a,0x0a,0x40,0x6e,0x61,0x6d,0x65,0x49,0x22,0x09,0x4d,0x6f,0x76,0x65,0x06,0x3a,0x06,0x45,0x54,0x3a,0x0b,0x40,0x70,0x69,0x74,0x63,0x68,0x69,0x69,0x3a,0x0c,0x40,0x76,0x6f,0x6c,0x75,0x6d,0x65,0x69,0x55))
  TeleportPlayer(0,720,66,14,8,0)
  0()



EVENT   15
 PAGE   1
  PictureDisplay(5,"80_minccubus_st03",0,0,-150,0,100,100,0,0)
  PictureDisplay(6,"80_renccubus_st01",0,0,150,0,100,100,0,0)
  PictureMove(5,null,0,0,-150,0,100,100,255,0,30,false)
  PictureMove(6,null,0,0,150,0,100,100,255,0,30,true)
  ShowMessageFace("minccubus_fc1",3,0,2,1)
  ShowMessage("\\n<Mincubus>It was that hero! Him and his friends were the ones bullying me!")
  ShowMessageFace("renccubus_fc1",1,0,2,2)
  ShowMessage("\\n<Lencubus>You're all terrible people for bullying my sister.\nI'm going to bully you back ten-fold.")
  ShowMessageFace("renccubus_fc1",1,0,2,3)
  ShowMessage("\\n<Lencubus>I'm really powerful now, you know.\nI drained all these guys dry, so... ♪")
  If(4,226,0)
   ShowMessageFace("sirohebisama_fc1",0,0,2,4)
   ShowMessage("\\n<Shirohebi>She appears to have lost her mind...")
   0()
  EndIf()
  ShowMessageFace("ruka_fc1",0,0,2,5)
  ShowMessage("\\n<Luka>We won't let you harm any more people!\nLet us return you to sanity!")
  PictureDisplay(6,"80_renccubus_st04",0,0,150,0,100,100,255,0)
  ShowMessageFace("renccubus_fc1",3,0,2,6)
  ShowMessage("\\n<Lencubus>Actually, let me suck out all your power too...♪\nDon't worry, it feels amazing to get sucked by me...")
  PictureDisplay(5,"80_minccubus_st01",0,0,-150,0,100,100,255,0)
  ShowMessageFace("minccubus_fc1",1,0,2,7)
  ShowMessage("\\n<Mincubus>I'll help too!")
  If(0,4,0)
   ShowMessageFace("alice_fc5",2,0,2,8)
   ShowMessage("\\n<Alice>They might have been human before, but don't hold back! If you go easy on them, you might lose!")
   0()
  EndIf()
  If(0,5,0)
   ShowMessageFace("iriasu_fc4",1,0,2,9)
   ShowMessage("\\n<Ilias>We have to return them to sanity!\nTry hitting them in the head repeatedly!")
   0()
  EndIf()
  If(4,129,0)
   ShowMessageFace("brunhild_fc1",0,0,2,10)
   ShowMessage("\\n<Hild>Commence punishment. Target: succubus.")
   0()
  EndIf()
  PictureClear(5)
  PictureClear(6)
  ChangeSwitch(22,22,0)
  Battle(0,740,false,false)
  ChangeSwitch(22,22,1)
  ChangeSwitch(2207,2207,0)
  PictureDisplay(5,"80_minccubus_st03",0,0,-150,0,100,100,0,0)
  PictureDisplay(6,"80_renccubus_st03",0,0,150,0,100,100,0,0)
  PictureMove(5,null,0,0,-150,0,100,100,255,0,30,false)
  PictureMove(6,null,0,0,150,0,100,100,255,0,30,true)
  ShowMessageFace("renccubus_fc1",4,0,2,11)
  ShowMessage("\\n<Lencubus>Huh...? What in the world was I...?")
  ShowMessageFace("minccubus_fc1",3,0,2,12)
  ShowMessage("\\n<Mincubus>Sis! What happened to me?")
  If(0,4,0)
   ShowMessageFace("alice_fc5",0,0,2,13)
   ShowMessage("\\n<Alice>Mmn, back in control of themselves?\nAs long as they've acclimatized to their succubus powers, there shouldn't be anything to worry about.")
   0()
  EndIf()
  If(0,5,0)
   ShowMessageFace("iriasu_fc4",2,0,2,14)
   ShowMessage("\\n<Ilias>Tch, they sobered up?\nOkay everyone, you can stop hitting them.")
   0()
  EndIf()
  If(0,6,0)
   ShowMessageFace("sonia_fc1",5,0,2,15)
   ShowMessage("\\n<Sonya>Don't leave this house for now. Got it?")
   0()
  Else()
   ShowMessageFace("ruka_fc1",0,0,2,16)
   ShowMessage("\\n<Luka>Stay in your home for now.")
   0()
  EndIf()
  ShowMessageFace("renccubus_fc1",4,0,2,17)
  ShowMessage("\\n<Lencubus>I don't know what's going on, but I'll stay here and protect my sister!")
  ShowMessageFace("minccubus_fc1",3,0,2,18)
  ShowMessage("\\n<Mincubus>I love you, sis!")
  If(4,84,0)
   ShowMessageFace("hapy_bc_fc1",0,0,2,19)
   ShowMessage("\\n<Pina & Pii>They have as good of a relationship as we do. ♪")
   0()
  EndIf()
  PictureClear(5)
  PictureClear(6)
  0()
 PAGE   2
  // condition: switch 2207 is ON
  PictureDisplay(5,"80_minccubus_st03",0,0,-150,0,100,100,0,0)
  PictureDisplay(6,"80_renccubus_st03",0,0,150,0,100,100,0,0)
  PictureMove(5,null,0,0,-150,0,100,100,255,0,30,false)
  PictureMove(6,null,0,0,150,0,100,100,255,0,30,true)
  ShowMessageFace("renccubus_fc1",4,0,2,1)
  ShowMessage("\\n<Lencubus>What's going on with the mayor?\nThis whole mess started over whether or not to hand over a man...")
  ShowMessageFace("minccubus_fc1",3,0,2,2)
  ShowMessage("\\n<Mincubus>I've got an idea, sis!\nLet's grill some potatoes to ash to take our minds off this mess!")
  355("actor_label_jump")
  PictureClear(5)
  PictureClear(6)
  EndEventProcessing()
  DefineLabel("143")
  ShowMessageFace("eva_fc1",0,0,2,3)
  ShowMessage("\\n<Eva>I wouldn't mind helping you grill potatoes.")
  ShowMessageFace("renccubus_fc1",4,0,2,4)
  ShowMessage("\\n<Lencubus>Y-You're... Oh dear...")
  PictureClear(5)
  PictureClear(6)
  EndEventProcessing()
  0()



EVENT   16
 PAGE   1
  If(0,2207,1)
   PictureDisplay(5,"80_minccubus_st03",0,0,0,0,100,100,255,0)
   ShowMessageFace("minccubus_fc1",3,0,2,1)
   ShowMessage("\\n<Mincubus>Waaaa, they followed me!")
   PictureClear(5)
   0()
  Else()
   PictureDisplay(5,"80_minccubus_st03",0,0,-150,0,100,100,0,0)
   PictureDisplay(6,"80_renccubus_st03",0,0,150,0,100,100,0,0)
   PictureMove(5,null,0,0,-150,0,100,100,255,0,30,false)
   PictureMove(6,null,0,0,150,0,100,100,255,0,30,true)
   ShowMessageFace("minccubus_fc1",3,0,2,2)
   ShowMessage("\\n<Mincubus>Sis! Why are all these men on the floor? I'm scared!")
   ShowMessageFace("renccubus_fc1",4,0,2,3)
   ShowMessage("\\n<Lencubus>Ah, I must have...\nIt's all right, nothing to be scared of.\nIt was wonderful, actually.")
   PictureClear(5)
   PictureClear(6)
   0()
  EndIf()
  0()



EVENT   17
 PAGE   1
  ShowMessageFace("",0,0,2,1)
  ShowMessage("\\n<Thug>Hauuu...")
  0()



EVENT   18
 PAGE   1
  ShowMessageFace("",0,0,2,1)
  ShowMessage("\\n<Youth>S-Sucked dry...")
  0()



EVENT   19
 PAGE   1
  ShowMessageFace("",0,0,2,1)
  ShowMessage("\\n<Old Man>Faaa...")
  0()



EVENT   20
 PAGE   1
  ShowMessageFace("",0,0,2,1)
  ShowMessage("\\n<Youth>Auuu...")
  0()



EVENT   21
 PAGE   1
  ShowMessageFace("",0,0,2,1)
  ShowMessage("\\n<Young Boy>Can't take... any more...")
  0()



EVENT   22
 PAGE   1
  PictureDisplay(5,"80_d_succubus_st01b",0,0,0,0,100,100,0,0)
  PictureMove(5,null,0,0,0,0,100,100,255,0,30,true)
  ShowMessageFace("d_succubus_fc1",0,0,2,1)
  ShowMessage("\\n<Natasha>Please don't try to stop me.\nOr maybe you've decided to help me defeat the mayor?")
  If(0,2097,0)
   If(0,1163,0)
    ShowMessageFace("lily_fc1",0,0,2,2)
    ShowMessage("\\n<Lily>Let's silence the damn mayor first.\n...Don't worry, you can trust me.")
    0()
   EndIf()
   0()
  EndIf()
  PictureClear(5)
  ShowMessageFace("ruka_fc1",0,0,2,3)
  ShowMessage("\\n<Luka>.........")
  ShowChoices(strings("Ally with Natasha against the mayor","Reconsider"),2)
  IfPlayerPicksChoice(0,null)
   205(-1,bytes(0x04,0x08,0x6f,0x3a,0x13,0x52,0x50,0x47,0x3a,0x3a,0x4d,0x6f,0x76,0x65,0x52,0x6f,0x75,0x74,0x65,0x09,0x3a,0x0c,0x40,0x72,0x65,0x70,0x65,0x61,0x74,0x46,0x3a,0x0f,0x40,0x73,0x6b,0x69,0x70,0x70,0x61,0x62,0x6c,0x65,0x46,0x3a,0x0a,0x40,0x77,0x61,0x69,0x74,0x54,0x3a,0x0a,0x40,0x6c,0x69,0x73,0x74,0x5b,0x07,0x6f,0x3a,0x15,0x52,0x50,0x47,0x3a,0x3a,0x4d,0x6f,0x76,0x65,0x43,0x6f,0x6d,0x6d,0x61,0x6e,0x64,0x07,0x3a,0x0a,0x40,0x63,0x6f,0x64,0x65,0x69,0x16,0x3a,0x10,0x40,0x70,0x61,0x72,0x61,0x6d,0x65,0x74,0x65,0x72,0x73,0x5b,0x00,0x6f,0x3b,0x0a,0x07,0x3b,0x0b,0x69,0x00,0x3b,0x0c,0x5b,0x00))
   ShowMessageFace("ruka_fc1",0,0,2,4)
   ShowMessage("\\n<Luka>All right, we'll lend you a hand, Natasha!")
   ShowMessageFace("d_succubus_fc1",0,0,2,5)
   ShowMessage("\\n<Natasha>Wow, you're really going to help me.\nOkay, I'll leave the mayor to you.")
   PictureDisplay(5,"80_succubus_st03",0,0,0,0,100,100,0,0)
   PictureMove(5,null,0,0,0,0,100,100,255,0,30,true)
   ShowMessageFace("succubus_fc1",3,0,2,6)
   ShowMessage("\\n<Succubus>Just great, now I have even more enemies...\nNo matter, I'll fight anyone to defend the villagers!")
   If(4,287,0)
    ShowMessageFace("succubus_fc1",3,0,2,7)
    ShowMessage("\\n<Succubus'>Fighting against oneself is... odd.")
    ShowMessageFace("succubus_fc1",3,0,2,8)
    ShowMessage("\\n<Succubus>What's going on here?\nForget it! You won't deceive me!")
    0()
   EndIf()
   ShowMessageFace("ruka_fc1",0,0,2,9)
   ShowMessage("\\n<Luka>Nothing personal, but... Let's go!")
   If(4,129,0)
    ShowMessageFace("brunhild_fc1",0,0,2,10)
    ShowMessage("\\n<Hild>Target: succubus.\nCommence battle.")
    0()
   EndIf()
   If(4,79,0)
    ShowMessageFace("nuruko_fc1",0,0,2,11)
    ShowMessage("\\n<Nuruko>Kyu kyu!")
    0()
   EndIf()
   PictureClear(5)
   SetBattleBGM(bytes(0x04,0x08,0x6f,0x3a,0x0d,0x52,0x50,0x47,0x3a,0x3a,0x42,0x47,0x4d,0x08,0x3a,0x0a,0x40,0x6e,0x61,0x6d,0x65,0x49,0x22,0x0a,0x62,0x6f,0x73,0x73,0x31,0x06,0x3a,0x06,0x45,0x54,0x3a,0x0c,0x40,0x76,0x6f,0x6c,0x75,0x6d,0x65,0x69,0x69,0x3a,0x0b,0x40,0x70,0x69,0x74,0x63,0x68,0x69,0x69))
   ChangeSwitch(22,22,0)
   283("DecorativeTile","Castle3")
   Battle(0,741,false,false)
   ChangeSwitch(22,22,1)
   SetBattleBGM(bytes(0x04,0x08,0x6f,0x3a,0x0d,0x52,0x50,0x47,0x3a,0x3a,0x42,0x47,0x4d,0x08,0x3a,0x0a,0x40,0x6e,0x61,0x6d,0x65,0x49,0x22,0x0b,0x62,0x61,0x74,0x74,0x6c,0x65,0x06,0x3a,0x06,0x45,0x54,0x3a,0x0c,0x40,0x76,0x6f,0x6c,0x75,0x6d,0x65,0x69,0x69,0x3a,0x0b,0x40,0x70,0x69,0x74,0x63,0x68,0x69,0x69))
   ChangeSwitch(1907,1907,0)
   314(0,0)
   281(1)
   TeleportPlayer(0,720,11,38,8,2)
   TeleportEvent(66,0,10,36,2)
   241(bytes(0x04,0x08,0x6f,0x3a,0x0d,0x52,0x50,0x47,0x3a,0x3a,0x42,0x47,0x4d,0x08,0x3a,0x0a,0x40,0x6e,0x61,0x6d,0x65,0x49,0x22,0x0a,0x6b,0x69,0x6b,0x69,0x32,0x06,0x3a,0x06,0x45,0x54,0x3a,0x0c,0x40,0x76,0x6f,0x6c,0x75,0x6d,0x65,0x69,0x69,0x3a,0x0b,0x40,0x70,0x69,0x74,0x63,0x68,0x69,0x69))
   PictureDisplay(5,"80_succubus_st03",0,0,0,0,100,100,0,0)
   PictureMove(5,null,0,0,0,0,100,100,255,0,30,true)
   ShowMessageFace("succubus_fc1",3,0,2,12)
   ShowMessage("\\n<Succubus>Nngh, no way...\nYou're really going to stand by and watch this man get lynched?")
   PictureClear(5)
   Wait(60)
   205(0,bytes(0x04,0x08,0x6f,0x3a,0x13,0x52,0x50,0x47,0x3a,0x3a,0x4d,0x6f,0x76,0x65,0x52,0x6f,0x75,0x74,0x65,0x09,0x3a,0x0c,0x40,0x72,0x65,0x70,0x65,0x61,0x74,0x46,0x3a,0x0f,0x40,0x73,0x6b,0x69,0x70,0x70,0x61,0x62,0x6c,0x65,0x46,0x3a,0x0a,0x40,0x77,0x61,0x69,0x74,0x54,0x3a,0x0a,0x40,0x6c,0x69,0x73,0x74,0x5b,0x07,0x6f,0x3a,0x15,0x52,0x50,0x47,0x3a,0x3a,0x4d,0x6f,0x76,0x65,0x43,0x6f,0x6d,0x6d,0x61,0x6e,0x64,0x07,0x3a,0x0a,0x40,0x63,0x6f,0x64,0x65,0x69,0x07,0x3a,0x10,0x40,0x70,0x61,0x72,0x61,0x6d,0x65,0x74,0x65,0x72,0x73,0x5b,0x00,0x6f,0x3b,0x0a,0x07,0x3b,0x0b,0x69,0x00,0x3b,0x0c,0x5b,0x00))
   ShowMessageFace("d_succubus_fc1",0,0,2,13)
   ShowMessage("\\n<Natasha>Time to carry out my revenge...\nIt won't be with pleasure, but with violence!")
   ShowMessageFace("",0,0,2,14)
   ShowMessage("\\n<Man>Eeeek!!")
   ShowMessageFace("d_succubus_fc1",0,0,2,15)
   ShowMessage("\\n<Natasha>By doing this, I will be reborn!")
   If(0,2097,0)
    If(0,1163,0)
     ShowMessageFace("lily_fc1",0,0,2,16)
     ShowMessage("\\n<Lily>No, you will not.\nIf you think this will buy you a fresh start, you're sorely mistaken.")
     205(0,bytes(0x04,0x08,0x6f,0x3a,0x13,0x52,0x50,0x47,0x3a,0x3a,0x4d,0x6f,0x76,0x65,0x52,0x6f,0x75,0x74,0x65,0x09,0x3a,0x0c,0x40,0x72,0x65,0x70,0x65,0x61,0x74,0x46,0x3a,0x0f,0x40,0x73,0x6b,0x69,0x70,0x70,0x61,0x62,0x6c,0x65,0x46,0x3a,0x0a,0x40,0x77,0x61,0x69,0x74,0x54,0x3a,0x0a,0x40,0x6c,0x69,0x73,0x74,0x5b,0x07,0x6f,0x3a,0x15,0x52,0x50,0x47,0x3a,0x3a,0x4d,0x6f,0x76,0x65,0x43,0x6f,0x6d,0x6d,0x61,0x6e,0x64,0x07,0x3a,0x0a,0x40,0x63,0x6f,0x64,0x65,0x69,0x15,0x3a,0x10,0x40,0x70,0x61,0x72,0x61,0x6d,0x65,0x74,0x65,0x72,0x73,0x5b,0x00,0x6f,0x3b,0x0a,0x07,0x3b,0x0b,0x69,0x00,0x3b,0x0c,0x5b,0x00))
     PictureDisplay(5,"80_d_succubus_st03b",0,0,0,0,100,100,0,0)
     PictureMove(5,null,0,0,0,0,100,100,255,0,30,true)
     ShowMessageFace("d_succubus_fc1",2,0,2,17)
     ShowMessage("\\n<Natasha>What makes you so sure that I'm mistaken!?")
     ShowMessageFace("lily_fc1",0,0,2,18)
     ShowMessage("\\n<Lily>I've been there.")
     ShowMessageFace("d_succubus_fc1",2,0,2,19)
     ShowMessage("\\n<Natasha>Were you abused and violated almost every day? Given no food and only muddy water to drink!?")
     ShowMessageFace("lily_fc1",0,0,2,20)
     ShowMessage("\\n<Lily>I only had rats and leather to eat.\nI was also abused for a longer time than you.")
     ShowMessageFace("d_succubus_fc1",2,0,2,21)
     ShowMessage("\\n<Natasha>Then you should understand my pain and anger!")
     241(bytes(0x04,0x08,0x6f,0x3a,0x0d,0x52,0x50,0x47,0x3a,0x3a,0x42,0x47,0x4d,0x08,0x3a,0x0a,0x40,0x6e,0x61,0x6d,0x65,0x49,0x22,0x13,0x73,0x63,0x65,0x6e,0x65,0x5f,0x6f,0x64,0x61,0x79,0x61,0x6b,0x61,0x32,0x06,0x3a,0x06,0x45,0x54,0x3a,0x0c,0x40,0x76,0x6f,0x6c,0x75,0x6d,0x65,0x69,0x69,0x3a,0x0b,0x40,0x70,0x69,0x74,0x63,0x68,0x69,0x69))
     ShowMessageFace("lily_fc1",0,0,2,22)
     ShowMessage("\\n<Lily>It's because I understand that I know where those emotions will end up. Getting revenge won't erase your pain and anger.")
     ShowMessageFace("lily_fc1",0,0,2,23)
     ShowMessage("\\n<Lily>Instead, with the target of your hatred gone, your anger will spiral out of control. You'll be driven to madness, leading to the ruin of yourself and others around you.")
     ShowMessageFace("ruka_fc1",0,0,2,24)
     ShowMessage("\\n<Luka>Lily...")
     ShowMessageFace("d_succubus_fc1",2,0,2,25)
     ShowMessage("\\n<Natasha>But I can't forgive him!\nI couldn't do anything when he... when he...")
     ShowMessageFace("lily_fc1",0,0,2,26)
     ShowMessage("\\n<Lily>Is he really the one you hate?\nOr do you hate your past self for being powerless to stop him?")
     ShowMessageFace("d_succubus_fc1",2,0,2,27)
     ShowMessage("\\n<Natasha>I...")
     ShowMessageFace("lily_fc1",0,0,2,28)
     ShowMessage("\\n<Lily>Hatred aimed at the wrong target will lash out unchecked. Before long, you end up oppressing the weak without a second thought...")
     ShowMessageFace("d_succubus_fc1",2,0,2,29)
     ShowMessage("\\n<Natasha>I would never do--")
     ShowMessageFace("lily_fc1",0,0,2,30)
     ShowMessage("\\n<Lily>Then what do you call your actions in this village? Those fallen men and women are undoubtedly weak compared to you.")
     ShowMessageFace("d_succubus_fc1",2,0,2,31)
     ShowMessage("\\n<Natasha>But! But...")
     ShowMessageFace("lily_fc1",0,0,2,32)
     ShowMessage("\\n<Lily>You and I have experienced that kind of suffering. That's why you shouldn't become like the people who abused and oppressed us.")
     ShowMessageFace("lily_fc1",0,0,2,33)
     ShowMessage("\\n<Lily>Did you look into the eyes of any girls as you were ransacking this village? They were likely identical to yours back then.")
     ShowMessageFace("d_succubus_fc1",2,0,2,34)
     ShowMessage("\\n<Natasha>.........")
     205(0,bytes(0x04,0x08,0x6f,0x3a,0x13,0x52,0x50,0x47,0x3a,0x3a,0x4d,0x6f,0x76,0x65,0x52,0x6f,0x75,0x74,0x65,0x09,0x3a,0x0c,0x40,0x72,0x65,0x70,0x65,0x61,0x74,0x46,0x3a,0x0f,0x40,0x73,0x6b,0x69,0x70,0x70,0x61,0x62,0x6c,0x65,0x46,0x3a,0x0a,0x40,0x77,0x61,0x69,0x74,0x54,0x3a,0x0a,0x40,0x6c,0x69,0x73,0x74,0x5b,0x07,0x6f,0x3a,0x15,0x52,0x50,0x47,0x3a,0x3a,0x4d,0x6f,0x76,0x65,0x43,0x6f,0x6d,0x6d,0x61,0x6e,0x64,0x07,0x3a,0x0a,0x40,0x63,0x6f,0x64,0x65,0x69,0x18,0x3a,0x10,0x40,0x70,0x61,0x72,0x61,0x6d,0x65,0x74,0x65,0x72,0x73,0x5b,0x00,0x6f,0x3b,0x0a,0x07,0x3b,0x0b,0x69,0x00,0x3b,0x0c,0x5b,0x00))
     241(bytes(0x04,0x08,0x6f,0x3a,0x0d,0x52,0x50,0x47,0x3a,0x3a,0x42,0x47,0x4d,0x08,0x3a,0x0a,0x40,0x6e,0x61,0x6d,0x65,0x49,0x22,0x14,0x73,0x63,0x65,0x6e,0x65,0x5f,0x65,0x70,0x69,0x6c,0x6f,0x67,0x75,0x65,0x32,0x06,0x3a,0x06,0x45,0x54,0x3a,0x0c,0x40,0x76,0x6f,0x6c,0x75,0x6d,0x65,0x69,0x69,0x3a,0x0b,0x40,0x70,0x69,0x74,0x63,0x68,0x69,0x69))
     PictureDisplay(5,"80_d_succubus_st01b",0,0,0,0,100,100,255,0)
     ShowMessageFace("d_succubus_fc1",0,0,2,35)
     ShowMessage("\\n<Natasha>You're right...\nI've been acting like a total idiot.")
     ShowMessageFace("d_succubus_fc1",0,0,2,36)
     ShowMessage("\\n<Natasha>Whether this one man lives or dies is not going to change my depression.")
     ShowMessageFace("",0,0,2,37)
     ShowMessage("\\n<Man>Y-You saved me...")
     ShowMessageFace("lily_fc1",0,0,2,38)
     ShowMessage("\\n<Lily>I saved a damaged young lady, not your worthless ass. Keep in mind that I'd still love to kill you.")
     ShowMessageFace("lily_fc1",0,0,2,39)
     ShowMessage("\\n<Lily>If you utter another word, my tentacles might spontaneously act on that urge. So do me a favor and keep your mouth shut so you don't ruin everything.")
     ShowMessageFace("",0,0,2,40)
     ShowMessage("\\n<Man>.........")
     If(0,4,0)
      ShowMessageFace("alice_fc5",2,0,2,41)
      ShowMessage("\\n<Alice>What do you plan on doing now, Natasha?")
      0()
     EndIf()
     If(0,5,0)
      ShowMessageFace("iriasu_fc4",2,0,2,42)
      ShowMessage("\\n<Ilias>Natasha... What do you plan on doing now?")
      0()
     EndIf()
     ShowMessageFace("d_succubus_fc1",0,0,2,43)
     ShowMessage("\\n<Natasha>Well... I intended to figure that out after I killed him.")
     ShowMessageFace("lily_fc1",0,0,2,44)
     ShowMessage("\\n<Lily>If you don't have anything planned, why not come with us? Having a sense of purpose like saving the world is a good outlet for restlessness.")
     ShowMessageFace("d_succubus_fc1",0,0,2,45)
     ShowMessage("\\n<Natasha>That sounds good...\nIf you don't mind having me along, I'd love to join.")
     PictureClear(5)
     205(0,bytes(0x04,0x08,0x6f,0x3a,0x13,0x52,0x50,0x47,0x3a,0x3a,0x4d,0x6f,0x76,0x65,0x52,0x6f,0x75,0x74,0x65,0x09,0x3a,0x0c,0x40,0x72,0x65,0x70,0x65,0x61,0x74,0x46,0x3a,0x0f,0x40,0x73,0x6b,0x69,0x70,0x70,0x61,0x62,0x6c,0x65,0x46,0x3a,0x0a,0x40,0x77,0x61,0x69,0x74,0x54,0x3a,0x0a,0x40,0x6c,0x69,0x73,0x74,0x5b,0x09,0x6f,0x3a,0x15,0x52,0x50,0x47,0x3a,0x3a,0x4d,0x6f,0x76,0x65,0x43,0x6f,0x6d,0x6d,0x61,0x6e,0x64,0x07,0x3a,0x0a,0x40,0x63,0x6f,0x64,0x65,0x69,0x2a,0x3a,0x10,0x40,0x70,0x61,0x72,0x61,0x6d,0x65,0x74,0x65,0x72,0x73,0x5b,0x00,0x6f,0x3b,0x0a,0x07,0x3b,0x0b,0x69,0x0f,0x3b,0x0c,0x5b,0x00,0x6f,0x3b,0x0a,0x07,0x3b,0x0b,0x69,0x2c,0x3b,0x0c,0x5b,0x00,0x6f,0x3b,0x0a,0x07,0x3b,0x0b,0x69,0x00,0x3b,0x0c,0x5b,0x00))
     355("add_actor_ex(288)")
     249(bytes(0x04,0x08,0x6f,0x3a,0x0c,0x52,0x50,0x47,0x3a,0x3a,0x4d,0x45,0x08,0x3a,0x0a,0x40,0x6e,0x61,0x6d,0x65,0x49,0x22,0x0c,0x66,0x61,0x6e,0x66,0x61,0x6c,0x65,0x06,0x3a,0x06,0x45,0x54,0x3a,0x0b,0x40,0x70,0x69,0x74,0x63,0x68,0x69,0x69,0x3a,0x0c,0x40,0x76,0x6f,0x6c,0x75,0x6d,0x65,0x69,0x69))
     ShowMessageFace("",0,0,2,46)
     ShowMessage("Natasha has joined the party!")
     Wait(60)
     PictureDisplay(5,"80_succubus_st01",0,0,0,0,100,100,0,0)
     PictureMove(5,null,0,0,0,0,100,100,255,0,30,true)
     ShowMessageFace("succubus_fc1",0,0,2,47)
     ShowMessage("\\n<Succubus>Thanks for working out an amicable settlement.\nWe'll take this man into custody and punish him for his crimes according to the law.")
     ShowMessageFace("d_succubus_fc1",0,0,2,48)
     ShowMessage("\\n<Natasha>I should be punished for the violence I brought on your village...")
     ShowMessageFace("succubus_fc1",0,0,2,49)
     ShowMessage("\\n<Succubus>If you feel guilty, work with the hero to save the world as penance.")
     ShowMessageFace("d_succubus_fc1",0,0,2,50)
     ShowMessage("\\n<Natasha>...I'm sorry for all the trouble I caused here.")
     ShowMessageFace("",0,0,2,51)
     ShowMessage("Thus, this incident was resolved.\nWe leave the mayor's mansion, considering it fortunate that no one lost their life today.")
     221()
     PictureClear(5)
     Wait(60)
     TeleportPlayer(0,45,39,11,2,2)
     ChangeSwitch(2210,2210,0)
     222()
     355("gain_medal(47)")
     If(0,6,0)
      ShowMessageFace("sonia_fc1",0,0,2,52)
      ShowMessage("\\n<Sonya>Consider this case closed!")
      0()
     Else()
      ShowMessageFace("ruka_fc1",0,0,2,53)
      ShowMessage("\\n<Luka>Consider this case closed!")
      0()
     EndIf()
     ShowMessageFace("lily_fc1",0,0,2,54)
     ShowMessage("\\n<Lily>My research is largely complete, too...\nI assume I can trust you with my results?")
     ShowMessageFace("lily_fc1",0,0,2,55)
     ShowMessage("\\n<Lily>This is a means of summoning tentacles using one's own body as a medium. After much research, I've found the limits of how much the body and mind can withstand.")
     250(bytes(0x04,0x08,0x6f,0x3a,0x0c,0x52,0x50,0x47,0x3a,0x3a,0x53,0x45,0x08,0x3a,0x0a,0x40,0x6e,0x61,0x6d,0x65,0x49,0x22,0x0a,0x49,0x74,0x65,0x6d,0x31,0x06,0x3a,0x06,0x45,0x54,0x3a,0x0b,0x40,0x70,0x69,0x74,0x63,0x68,0x69,0x69,0x3a,0x0c,0x40,0x76,0x6f,0x6c,0x75,0x6d,0x65,0x69,0x55))
     ChangeInventory_Item(638,0,0,1)
     ShowMessageFace("lily_fc1",0,0,2,56)
     ShowMessage("\\n<Lily>Only people with human bodies can take advantage of this. It will let them change their race to Worm Summoner at Ilias Temple.")
     If(0,4,0)
      ShowMessageFace("alice_fc5",1,0,2,57)
      ShowMessage("\\n<Alice>Sure, we'll take good care of your research.")
      0()
     EndIf()
     If(0,5,0)
      ShowMessageFace("iriasu_fc4",2,0,2,58)
      ShowMessage("\\n<Ilias>I'll keep such a dangerous item in my custody. It shall remain a forbidden art for our party's use only.")
      0()
     EndIf()
     If(0,6,0)
      ShowMessageFace("ruka_fc1",0,0,2,59)
      ShowMessage("\\n<Luka>A race change that only humans can use...\nI'm not keen on the idea. How about you, Sonya?")
      ShowMessageFace("sonia_fc2",2,0,2,60)
      ShowMessage("\\n<Sonya>Summoning tentacles, hmmm...\nSeems kinda gross, but I might be interested in giving it a try.")
      0()
     EndIf()
     RunCommonEvent(343)
     EndEventProcessing()
     0()
    EndIf()
    0()
   EndIf()
   221()
   PictureClear(5)
   250(bytes(0x04,0x08,0x6f,0x3a,0x0c,0x52,0x50,0x47,0x3a,0x3a,0x53,0x45,0x08,0x3a,0x0a,0x40,0x6e,0x61,0x6d,0x65,0x49,0x22,0x0e,0x6d,0x6f,0x6e,0x5f,0x73,0x6c,0x61,0x73,0x68,0x06,0x3a,0x06,0x45,0x54,0x3a,0x0b,0x40,0x70,0x69,0x74,0x63,0x68,0x69,0x69,0x3a,0x0c,0x40,0x76,0x6f,0x6c,0x75,0x6d,0x65,0x69,0x55))
   ShowMessageFace("",0,0,2,61)
   ShowMessage("\\n<Man>Gyaaa!!")
   Wait(60)
   TeleportPlayer(0,45,39,11,2,2)
   ChangeSwitch(2211,2211,0)
   222()
   355("gain_medal(47)")
   If(0,6,0)
    ShowMessageFace("sonia_fc2",2,0,2,62)
    ShowMessage("\\n<Sonya>I don't feel good about how this ended...\nWasn't there anything else we could have done?")
    0()
   Else()
    ShowMessageFace("ruka_fc1",0,0,2,63)
    ShowMessage("\\n<Luka>I don't feel good about how this ended...")
    0()
   EndIf()
   RunCommonEvent(343)
   EndEventProcessing()
   0()
  IfPlayerPicksChoice(1,null)
   EndEventProcessing()
   0()
  404()
  0()



EVENT   23
 PAGE   1
  0()



EVENT   24
 PAGE   1
  0()



EVENT   25
 PAGE   1
  0()



EVENT   26
 PAGE   1
  0()



EVENT   27
 PAGE   1
  0()



EVENT   28
 PAGE   1
  108("明かり設定3300300")
  0()



EVENT   29
 PAGE   1
  ShowMessageFace("",0,0,2,1)
  ShowMessage("\\n<Man>She sucked... it all...")
  0()



EVENT   30
 PAGE   1
  ShowMessageFace("",0,0,2,1)
  ShowMessage("\\n<Soldier>Haaa...")
  0()



EVENT   31
 PAGE   1
  108("明かり設定1243070015")
  0()



EVENT   32
 PAGE   1
  108("明かり設定3300300")
  0()



EVENT   33
 PAGE   1
  108("明かり設定3300200")
  0()



EVENT   34
 PAGE   1
  ShowMessageFace("",0,0,2,1)
  ShowMessage("\\n<Soldier>Ugh... I didn't stand a chance...")
  0()



EVENT   35
 PAGE   1
  250(bytes(0x04,0x08,0x6f,0x3a,0x0c,0x52,0x50,0x47,0x3a,0x3a,0x53,0x45,0x08,0x3a,0x0a,0x40,0x6e,0x61,0x6d,0x65,0x49,0x22,0x09,0x4d,0x6f,0x76,0x65,0x06,0x3a,0x06,0x45,0x54,0x3a,0x0b,0x40,0x70,0x69,0x74,0x63,0x68,0x69,0x69,0x3a,0x0c,0x40,0x76,0x6f,0x6c,0x75,0x6d,0x65,0x69,0x55))
  TeleportPlayer(0,720,20,44,0,0)
  0()



EVENT   36
 PAGE   1
  250(bytes(0x04,0x08,0x6f,0x3a,0x0c,0x52,0x50,0x47,0x3a,0x3a,0x53,0x45,0x08,0x3a,0x0a,0x40,0x6e,0x61,0x6d,0x65,0x49,0x22,0x09,0x4d,0x6f,0x76,0x65,0x06,0x3a,0x06,0x45,0x54,0x3a,0x0b,0x40,0x70,0x69,0x74,0x63,0x68,0x69,0x69,0x3a,0x0c,0x40,0x76,0x6f,0x6c,0x75,0x6d,0x65,0x69,0x55))
  TeleportPlayer(0,720,66,14,8,0)
  0()



EVENT   37
 PAGE   1
  0()



EVENT   38
 PAGE   1
  0()



EVENT   39
 PAGE   1
  0()



EVENT   40
 PAGE   1
  0()



EVENT   41
 PAGE   1
  0()



EVENT   42
 PAGE   1
  250(bytes(0x04,0x08,0x6f,0x3a,0x0c,0x52,0x50,0x47,0x3a,0x3a,0x53,0x45,0x08,0x3a,0x0a,0x40,0x6e,0x61,0x6d,0x65,0x49,0x22,0x09,0x4d,0x6f,0x76,0x65,0x06,0x3a,0x06,0x45,0x54,0x3a,0x0b,0x40,0x70,0x69,0x74,0x63,0x68,0x69,0x69,0x3a,0x0c,0x40,0x76,0x6f,0x6c,0x75,0x6d,0x65,0x69,0x55))
  TeleportPlayer(0,720,66,49,8,0)
  0()



EVENT   43
 PAGE   1
  PictureDisplay(5,"80_maccubus_st02",0,0,0,0,100,100,0,0)
  PictureMove(5,null,0,0,0,0,100,100,255,0,30,true)
  ShowMessageFace("",0,0,2,1)
  ShowMessage("\\n<Soldier>Ah, ahhhh...")
  ShowMessageFace("maccubus_fc1",4,0,2,2)
  ShowMessage("\\n<Maccubus>Hora hora...\nDo you feel like you're in Heaven? I'll let you come more and more...\nHoora, hora hora...")
  ShowMessageFace("",0,0,2,3)
  ShowMessage("\\n<Soldier>Ahiii... Aaaaaah!!")
  ShowMessageFace("",0,0,2,4)
  ShowMessage("The soldier climaxes and blacks out.")
  PictureDisplay(5,"80_maccubus_st01",0,0,0,0,100,100,255,0)
  ShowMessageFace("maccubus_fc1",2,0,2,5)
  ShowMessage("\\n<Maccubus>Already down for the count?\nThat's rude, passing out before I've orgasmed...")
  PictureClear(5)
  Wait(60)
  205(0,bytes(0x04,0x08,0x6f,0x3a,0x13,0x52,0x50,0x47,0x3a,0x3a,0x4d,0x6f,0x76,0x65,0x52,0x6f,0x75,0x74,0x65,0x09,0x3a,0x0c,0x40,0x72,0x65,0x70,0x65,0x61,0x74,0x46,0x3a,0x0f,0x40,0x73,0x6b,0x69,0x70,0x70,0x61,0x62,0x6c,0x65,0x46,0x3a,0x0a,0x40,0x77,0x61,0x69,0x74,0x54,0x3a,0x0a,0x40,0x6c,0x69,0x73,0x74,0x5b,0x08,0x6f,0x3a,0x15,0x52,0x50,0x47,0x3a,0x3a,0x4d,0x6f,0x76,0x65,0x43,0x6f,0x6d,0x6d,0x61,0x6e,0x64,0x07,0x3a,0x0a,0x40,0x63,0x6f,0x64,0x65,0x69,0x29,0x3a,0x10,0x40,0x70,0x61,0x72,0x61,0x6d,0x65,0x74,0x65,0x72,0x73,0x5b,0x00,0x6f,0x3b,0x0a,0x07,0x3b,0x0b,0x69,0x1e,0x3b,0x0c,0x5b,0x00,0x6f,0x3b,0x0a,0x07,0x3b,0x0b,0x69,0x00,0x3b,0x0c,0x5b,0x00))
  Wait(60)
  PictureDisplay(5,"80_maccubus_st02",0,0,0,0,100,100,0,0)
  PictureMove(5,null,0,0,0,0,100,100,255,0,30,true)
  ShowMessageFace("maccubus_fc1",4,0,2,6)
  ShowMessage("\\n<Maccubus>Oh well, I'll feast on you next.\nYou'll be just like the other prey sprawled out on the floor...")
  ShowMessageFace("",0,0,2,7)
  ShowMessage("The prostitute turned succubus, her body covered in the semen of other men, approaches us!")
  If(0,4,0)
   ShowMessageFace("alice_fc5",2,0,2,8)
   ShowMessage("\\n<Alice>Has she completely lost her mind...?\nWe'll have to attack and bring her back to her senses!")
   0()
  EndIf()
  If(0,5,0)
   ShowMessageFace("iriasu_fc4",2,0,2,9)
   ShowMessage("\\n<Ilias>Ewww, gross! Can I sit this one out?")
   0()
  EndIf()
  ShowMessageFace("ruka_fc1",0,0,2,10)
  ShowMessage("\\n<Luka>All right, if we have to!")
  ShowMessageFace("maccubus_fc1",4,0,2,11)
  ShowMessage("\\n<Maccubus>I'll milk you for your cum too...\nLet me suck you until you're bone dry!")
  If(12,"exist_party_persona_id?(241)")
   ShowMessageFace("a_emp_fc1",0,0,2,12)
   ShowMessage("\\n<Priestess>Not much choice here, I suppose.")
   0()
  EndIf()
  PictureClear(5)
  ChangeSwitch(22,22,0)
  Battle(0,739,false,false)
  ChangeSwitch(22,22,1)
  ChangeSwitch(2208,2208,0)
  PictureDisplay(5,"80_maccubus_st03",0,0,0,0,100,100,0,0)
  PictureMove(5,null,0,0,0,0,100,100,255,0,30,true)
  ShowMessageFace("maccubus_fc1",6,0,2,13)
  ShowMessage("\\n<Maccubus>Ngh... What have I been doing?\nWhy am I smeared in cum?")
  If(0,4,0)
   ShowMessageFace("alice_fc5",0,0,2,14)
   ShowMessage("\\n<Alice>You were turned into a succubus.\nIt may be hard to hear, but you'll never be human again.")
   0()
  EndIf()
  If(0,5,0)
   ShowMessageFace("iriasu_fc4",2,0,2,15)
   ShowMessage("\\n<Ilias>You have become a filthy succubus.\nThere is no turning back for you now.")
   0()
  EndIf()
  PictureDisplay(5,"80_maccubus_st01",0,0,0,0,100,100,255,0)
  ShowMessageFace("maccubus_fc1",2,0,2,16)
  ShowMessage("\\n<Maccubus>Oh... That's fine, whatever.\nI definitely need a shower, though.")
  If(0,6,0)
   ShowMessageFace("sonia_fc3",2,0,2,17)
   ShowMessage("\\n<Sonya>She accepted that fast!")
   0()
  Else()
   ShowMessageFace("ruka_fc1",0,0,2,18)
   ShowMessage("\\n<Luka>You really don't mind...?")
   0()
  EndIf()
  PictureClear(5)
  0()
 PAGE   2
  // condition: switch 2208 is ON
  PictureDisplay(5,"80_maccubus_st01",0,0,0,0,100,100,0,0)
  PictureMove(5,null,0,0,0,0,100,100,255,0,30,true)
  ShowMessageFace("maccubus_fc1",2,0,2,1)
  ShowMessage("\\n<Maccubus>That man from Luddite Village became a point of contention. I don't really like him either.")
  ShowMessageFace("maccubus_fc1",2,0,2,2)
  ShowMessage("\\n<Maccubus>That succubus Natasha had been showing up in the village and discussing something with the mayor for a while now, but I never thought it'd come to this.")
  PictureClear(5)
  0()



EVENT   44
 PAGE   1
  ShowMessageFace("",0,0,2,1)
  ShowMessage("\\n<Soldier>Ah, aaah...")
  0()



EVENT   45
 PAGE   1
  ShowMessageFace("",0,0,2,1)
  ShowMessage("\\n<Swordsman>What amazing technique...")
  0()



EVENT   46
 PAGE   1
  0()



EVENT   47
 PAGE   1
  0()



EVENT   48
 PAGE   1
  0()



EVENT   49
 PAGE   1
  0()



EVENT   50
 PAGE   1
  0()



EVENT   51
 PAGE   1
  0()



EVENT   52
 PAGE   1
  0()



EVENT   53
 PAGE   1
  0()



EVENT   54
 PAGE   1
  0()



EVENT   55
 PAGE   1
  0()



EVENT   56
 PAGE   1
  0()



EVENT   57
 PAGE   1
  0()



EVENT   58
 PAGE   1
  0()



EVENT   59
 PAGE   1
  281(1)
  250(bytes(0x04,0x08,0x6f,0x3a,0x0c,0x52,0x50,0x47,0x3a,0x3a,0x53,0x45,0x08,0x3a,0x0a,0x40,0x6e,0x61,0x6d,0x65,0x49,0x22,0x09,0x4d,0x6f,0x76,0x65,0x06,0x3a,0x06,0x45,0x54,0x3a,0x0b,0x40,0x70,0x69,0x74,0x63,0x68,0x69,0x69,0x3a,0x0c,0x40,0x76,0x6f,0x6c,0x75,0x6d,0x65,0x69,0x55))
  TeleportPlayer(0,719,30,30,0,0)
  0()



EVENT   60
 PAGE   1
  ShowMessageFace("",0,0,2,1)
  ShowMessage("\\n<Burly Man>Is... Is this Heaven?")
  0()



EVENT   61
 PAGE   1
  ShowMessageFace("",0,0,2,1)
  ShowMessage("\\n<Traveling Swordsman>I can't take... any more...")
  0()



EVENT   62
 PAGE   1
  ShowMessageFace("",0,0,2,1)
  ShowMessage("\\n<Soldier>She drained my balls dry...\nI'm so lucky...")
  0()



EVENT   63
 PAGE   1
  ShowMessageFace("",0,0,2,1)
  ShowMessage("\\n<Soldier>I can't come any more...")
  0()



EVENT   64
 PAGE   1
  250(bytes(0x04,0x08,0x6f,0x3a,0x0c,0x52,0x50,0x47,0x3a,0x3a,0x53,0x45,0x08,0x3a,0x0a,0x40,0x6e,0x61,0x6d,0x65,0x49,0x22,0x09,0x4d,0x6f,0x76,0x65,0x06,0x3a,0x06,0x45,0x54,0x3a,0x0b,0x40,0x70,0x69,0x74,0x63,0x68,0x69,0x69,0x3a,0x0c,0x40,0x76,0x6f,0x6c,0x75,0x6d,0x65,0x69,0x55))
  TeleportPlayer(0,720,66,19,2,0)
  0()



EVENT   65
 PAGE   1
  ShowMessageFace("",0,0,2,1)
  ShowMessage("\\n<Thug>uhhhh... nngh...")
  0()



EVENT   66
 PAGE   1
  PictureDisplay(5,"80_succubus_st03",0,0,0,0,100,100,0,0)
  PictureMove(5,null,0,0,0,0,100,100,255,0,30,true)
  ShowMessageFace("succubus_fc1",3,0,2,1)
  ShowMessage("\\n<Succubus>Would you assist me, travelers?\nI understand why she's angry, but that's exactly why we need to stop her!")
  If(0,2096,0)
   If(0,1167,0)
    ShowMessageFace("lusia_fc1",2,0,2,2)
    ShowMessage("\\n<Lucia>I don't want a repeat of the tragedy with Lily...\nSo let's stop Natasha!")
    0()
   EndIf()
   0()
  EndIf()
  PictureClear(5)
  ShowMessageFace("ruka_fc1",0,0,2,3)
  ShowMessage("\\n<Luka>.........")
  ShowChoices(strings("Ally with the mayor against Natasha","Reconsider"),2)
  IfPlayerPicksChoice(0,null)
   205(-1,bytes(0x04,0x08,0x6f,0x3a,0x13,0x52,0x50,0x47,0x3a,0x3a,0x4d,0x6f,0x76,0x65,0x52,0x6f,0x75,0x74,0x65,0x09,0x3a,0x0c,0x40,0x72,0x65,0x70,0x65,0x61,0x74,0x46,0x3a,0x0f,0x40,0x73,0x6b,0x69,0x70,0x70,0x61,0x62,0x6c,0x65,0x46,0x3a,0x0a,0x40,0x77,0x61,0x69,0x74,0x54,0x3a,0x0a,0x40,0x6c,0x69,0x73,0x74,0x5b,0x07,0x6f,0x3a,0x15,0x52,0x50,0x47,0x3a,0x3a,0x4d,0x6f,0x76,0x65,0x43,0x6f,0x6d,0x6d,0x61,0x6e,0x64,0x07,0x3a,0x0a,0x40,0x63,0x6f,0x64,0x65,0x69,0x17,0x3a,0x10,0x40,0x70,0x61,0x72,0x61,0x6d,0x65,0x74,0x65,0x72,0x73,0x5b,0x00,0x6f,0x3b,0x0a,0x07,0x3b,0x0b,0x69,0x00,0x3b,0x0c,0x5b,0x00))
   ShowMessageFace("ruka_fc1",0,0,2,4)
   ShowMessage("\\n<Luka>All right, we'll stop Natasha!")
   PictureDisplay(5,"80_d_succubus_st03b",0,0,0,0,100,100,0,0)
   PictureMove(5,null,0,0,0,0,100,100,255,0,30,true)
   ShowMessageFace("d_succubus_fc1",2,0,2,5)
   ShowMessage("\\n<Natasha>So you decided to get in my way after all...\nYou never helped me, but you're willing to save him for some reason!")
   ShowMessageFace("ruka_fc1",0,0,2,6)
   ShowMessage("\\n<Luka>We may be helping him, but we're also preventing you from making a mistake you'd regret!")
   ShowMessageFace("d_succubus_fc1",2,0,2,7)
   ShowMessage("\\n<Natasha>Yeah well, I'm going to rape your brains out then! Just like he did to me!")
   If(4,288,0)
    ShowMessageFace("d_succubus_fc1",0,0,2,8)
    ShowMessage("\\n<Natasha'>It truly is sad to see someone who firmly believes that revenge is their only option.")
    ShowMessageFace("d_succubus_fc1",2,0,2,9)
    ShowMessage("\\n<Natasha>No matter what anyone says, this IS my only option! I can't move forward while this man lives!")
    0()
   EndIf()
   If(4,129,0)
    ShowMessageFace("brunhild_fc1",0,0,2,10)
    ShowMessage("\\n<Hild>Target: succubus.\nCommence battle.")
    0()
   EndIf()
   If(4,79,0)
    ShowMessageFace("nuruko_fc1",0,0,2,11)
    ShowMessage("\\n<Nuruko>Kyu kyu!")
    0()
   EndIf()
   PictureClear(5)
   SetBattleBGM(bytes(0x04,0x08,0x6f,0x3a,0x0d,0x52,0x50,0x47,0x3a,0x3a,0x42,0x47,0x4d,0x08,0x3a,0x0a,0x40,0x6e,0x61,0x6d,0x65,0x49,0x22,0x0a,0x62,0x6f,0x73,0x73,0x31,0x06,0x3a,0x06,0x45,0x54,0x3a,0x0c,0x40,0x76,0x6f,0x6c,0x75,0x6d,0x65,0x69,0x69,0x3a,0x0b,0x40,0x70,0x69,0x74,0x63,0x68,0x69,0x69))
   ChangeSwitch(22,22,0)
   283("DecorativeTile","Castle3")
   Battle(0,742,false,false)
   ChangeSwitch(22,22,1)
   SetBattleBGM(bytes(0x04,0x08,0x6f,0x3a,0x0d,0x52,0x50,0x47,0x3a,0x3a,0x42,0x47,0x4d,0x08,0x3a,0x0a,0x40,0x6e,0x61,0x6d,0x65,0x49,0x22,0x0b,0x62,0x61,0x74,0x74,0x6c,0x65,0x06,0x3a,0x06,0x45,0x54,0x3a,0x0c,0x40,0x76,0x6f,0x6c,0x75,0x6d,0x65,0x69,0x69,0x3a,0x0b,0x40,0x70,0x69,0x74,0x63,0x68,0x69,0x69))
   ChangeSwitch(1908,1908,0)
   314(0,0)
   281(1)
   TeleportPlayer(0,720,11,38,8,2)
   TeleportEvent(66,0,10,36,2)
   241(bytes(0x04,0x08,0x6f,0x3a,0x0d,0x52,0x50,0x47,0x3a,0x3a,0x42,0x47,0x4d,0x08,0x3a,0x0a,0x40,0x6e,0x61,0x6d,0x65,0x49,0x22,0x13,0x73,0x63,0x65,0x6e,0x65,0x5f,0x6f,0x64,0x61,0x79,0x61,0x6b,0x61,0x32,0x06,0x3a,0x06,0x45,0x54,0x3a,0x0c,0x40,0x76,0x6f,0x6c,0x75,0x6d,0x65,0x69,0x69,0x3a,0x0b,0x40,0x70,0x69,0x74,0x63,0x68,0x69,0x69))
   PictureDisplay(5,"80_d_succubus_st03b",0,0,0,0,100,100,0,0)
   PictureMove(5,null,0,0,0,0,100,100,255,0,30,true)
   ShowMessageFace("d_succubus_fc1",2,0,2,12)
   ShowMessage("\\n<Natasha>No... My revenge...")
   205(0,bytes(0x04,0x08,0x6f,0x3a,0x13,0x52,0x50,0x47,0x3a,0x3a,0x4d,0x6f,0x76,0x65,0x52,0x6f,0x75,0x74,0x65,0x09,0x3a,0x0c,0x40,0x72,0x65,0x70,0x65,0x61,0x74,0x46,0x3a,0x0f,0x40,0x73,0x6b,0x69,0x70,0x70,0x61,0x62,0x6c,0x65,0x46,0x3a,0x0a,0x40,0x77,0x61,0x69,0x74,0x54,0x3a,0x0a,0x40,0x6c,0x69,0x73,0x74,0x5b,0x07,0x6f,0x3a,0x15,0x52,0x50,0x47,0x3a,0x3a,0x4d,0x6f,0x76,0x65,0x43,0x6f,0x6d,0x6d,0x61,0x6e,0x64,0x07,0x3a,0x0a,0x40,0x63,0x6f,0x64,0x65,0x69,0x15,0x3a,0x10,0x40,0x70,0x61,0x72,0x61,0x6d,0x65,0x74,0x65,0x72,0x73,0x5b,0x00,0x6f,0x3b,0x0a,0x07,0x3b,0x0b,0x69,0x00,0x3b,0x0c,0x5b,0x00))
   PictureDisplay(5,"80_succubus_st01",0,0,0,0,100,100,255,0)
   ShowMessageFace("succubus_fc1",0,0,2,13)
   ShowMessage("\\n<Succubus>Thanks for lending me a hand.\nI couldn't have stopped her without your help.")
   ShowMessageFace("",0,0,2,14)
   ShowMessage("\\n<Man>Hehe, I'm spared...\nThanks for savin' my bacon!")
   205(0,bytes(0x04,0x08,0x6f,0x3a,0x13,0x52,0x50,0x47,0x3a,0x3a,0x4d,0x6f,0x76,0x65,0x52,0x6f,0x75,0x74,0x65,0x09,0x3a,0x0c,0x40,0x72,0x65,0x70,0x65,0x61,0x74,0x46,0x3a,0x0f,0x40,0x73,0x6b,0x69,0x70,0x70,0x61,0x62,0x6c,0x65,0x46,0x3a,0x0a,0x40,0x77,0x61,0x69,0x74,0x54,0x3a,0x0a,0x40,0x6c,0x69,0x73,0x74,0x5b,0x07,0x6f,0x3a,0x15,0x52,0x50,0x47,0x3a,0x3a,0x4d,0x6f,0x76,0x65,0x43,0x6f,0x6d,0x6d,0x61,0x6e,0x64,0x07,0x3a,0x0a,0x40,0x63,0x6f,0x64,0x65,0x69,0x16,0x3a,0x10,0x40,0x70,0x61,0x72,0x61,0x6d,0x65,0x74,0x65,0x72,0x73,0x5b,0x00,0x6f,0x3b,0x0a,0x07,0x3b,0x0b,0x69,0x00,0x3b,0x0c,0x5b,0x00))
   ShowMessageFace("succubus_fc1",0,0,2,15)
   ShowMessage("\\n<Succubus>I haven't forgotten about what you did.\nI could not approve of Natasha's vigilante justice, but...")
   ShowMessageFace("succubus_fc1",0,0,2,16)
   ShowMessage("\\n<Succubus>As a member of this village, you will receive a fair trial under the law. I imagine you'll end up serving a few decades in prison.")
   ShowMessageFace("",0,0,2,17)
   ShowMessage("\\n<Man>Y-You've got to be kidding me!")
   ShowMessageFace("succubus_fc1",0,0,2,18)
   ShowMessage("\\n<Succubus>Would it be okay if we took Natasha in as well?\nNot as a criminal, but as a lost lamb with nowhere else to go.")
   PictureDisplay(5,"80_succubus_st01",0,0,-150,0,100,100,255,0)
   PictureDisplay(6,"80_d_succubus_st03",0,0,150,0,100,100,255,0)
   ShowMessageFace("d_succubus_fc1",2,0,2,19)
   ShowMessage("\\n<Natasha>I was defeated, so do whatever you like to me...")
   If(0,2096,0)
    If(0,1167,0)
     ShowMessageFace("lusia_fc1",0,0,2,20)
     ShowMessage("\\n<Lucia>You will probably dismiss this as me paying lip service to your plight, but as a prescription to remedy your feelings of helplessness, I can't recommend against revenge enough.")
     ShowMessageFace("d_succubus_fc1",2,0,2,21)
     ShowMessage("\\n<Natasha>.........")
     ShowMessageFace("lusia_fc1",2,0,2,22)
     ShowMessage("\\n<Lucia>Looking at you reminds me of a friend who made the same mistake. Our circumstances were not unlike yours...")
     ShowMessageFace("lusia_fc1",0,0,2,23)
     ShowMessage("\\n<Lucia>However, your hands are not yet stained with blood. You still have a chance to heal.")
     PictureClear(6)
     PictureDisplay(5,"80_succubus_st01",0,0,0,0,100,100,255,0)
     If(0,4,0)
      ShowMessageFace("alice_fc5",0,0,2,24)
      ShowMessage("\\n<Alice>Yeah... We trust you'll take good care of things here, mayor. We have a lot on our plate, so we can't stick around.")
      0()
     EndIf()
     If(0,5,0)
      ShowMessageFace("iriasu_fc4",0,0,2,25)
      ShowMessage("\\n<Ilias>Okay... We trust you'll handle the rest, mayor. We are quite busy and cannot afford to fritter our time away.")
      0()
     EndIf()
     ShowMessageFace("succubus_fc1",0,0,2,26)
     ShowMessage("\\n<Succubus>I can't thank you enough.\nNext time, I'll be there to lend you my assistance.")
     PictureClear(5)
     ShowMessageFace("",0,0,2,27)
     ShowMessage("Thus, this incident was resolved.\nWe leave the mayor's mansion, considering it fortunate that no one lost their life today.")
     221()
     Wait(60)
     TeleportPlayer(0,45,39,11,2,2)
     ChangeSwitch(2212,2212,0)
     222()
     355("gain_medal(47)")
     241(bytes(0x04,0x08,0x6f,0x3a,0x0d,0x52,0x50,0x47,0x3a,0x3a,0x42,0x47,0x4d,0x08,0x3a,0x0a,0x40,0x6e,0x61,0x6d,0x65,0x49,0x22,0x14,0x73,0x63,0x65,0x6e,0x65,0x5f,0x65,0x70,0x69,0x6c,0x6f,0x67,0x75,0x65,0x32,0x06,0x3a,0x06,0x45,0x54,0x3a,0x0c,0x40,0x76,0x6f,0x6c,0x75,0x6d,0x65,0x69,0x69,0x3a,0x0b,0x40,0x70,0x69,0x74,0x63,0x68,0x69,0x69))
     If(0,6,0)
      ShowMessageFace("sonia_fc1",0,0,2,28)
      ShowMessage("\\n<Sonya>Consider this case closed!")
      0()
     Else()
      ShowMessageFace("ruka_fc1",0,0,2,29)
      ShowMessage("\\n<Luka>Consider this case closed!")
      0()
     EndIf()
     RunCommonEvent(343)
     EndEventProcessing()
     0()
    EndIf()
    0()
   EndIf()
   If(0,4,0)
    ShowMessageFace("alice_fc5",0,0,2,30)
    ShowMessage("\\n<Alice>Natasha still appears defiant...\nOh well, we did what we could.")
    0()
   EndIf()
   If(0,5,0)
    ShowMessageFace("iriasu_fc4",0,0,2,31)
    ShowMessage("\\n<Ilias>Natasha still appears defiant...\nI suppose we didn't discipline her hard enough.")
    0()
   EndIf()
   PictureClear(6)
   PictureDisplay(5,"80_succubus_st01",0,0,0,0,100,100,255,0)
   ShowMessageFace("succubus_fc1",0,0,2,32)
   ShowMessage("\\n<Succubus>I'm not sure what to do with her, but I'll figure something out. I'm in your debt as well...")
   ShowMessageFace("succubus_fc1",0,0,2,33)
   ShowMessage("\\n<Succubus>I'd like to properly thank you, but I'm going to be busy for a while helping the villagers recover and watching over Natasha.")
   If(0,4,0)
    ShowMessageFace("alice_fc5",0,0,2,34)
    ShowMessage("\\n<Alice>Yeah... We trust you'll take good care of things here, mayor.")
    0()
   EndIf()
   If(0,5,0)
    ShowMessageFace("iriasu_fc4",0,0,2,35)
    ShowMessage("\\n<Ilias>Okay... We trust you'll handle the rest, mayor.")
    0()
   EndIf()
   PictureClear(5)
   ShowMessageFace("",0,0,2,36)
   ShowMessage("Thus, this incident was resolved.\nWe leave the mayor's mansion, considering it fortunate that no one lost their life today.")
   221()
   Wait(60)
   TeleportPlayer(0,45,39,11,2,2)
   ChangeSwitch(2213,2213,0)
   222()
   355("gain_medal(47)")
   If(0,6,0)
    ShowMessageFace("sonia_fc1",0,0,2,37)
    ShowMessage("\\n<Sonya>I feel bad for Natasha... but at least we took care of things.")
    0()
   Else()
    ShowMessageFace("ruka_fc1",0,0,2,38)
    ShowMessage("\\n<Luka>I feel bad for Natasha... but at least we took care of things.")
    0()
   EndIf()
   RunCommonEvent(343)
   0()
  IfPlayerPicksChoice(1,null)
   EndEventProcessing()
   0()
  404()
  0()



EVENT   67
 PAGE   1
  ShowMessageFace("",0,0,2,1)
  ShowMessage("\\n<Youth>Th-that was amazing...")
  0()



EVENT   68
 PAGE   1
  ShowMessageFace("",0,0,2,1)
  ShowMessage("\\n<Village Succubus>If Witch were here...\nEven if we didn't win, we'd at least put up a good fight...")
  0()



EVENT   69
 PAGE   1
  ShowMessageFace("",0,0,2,1)
  ShowMessage("\\n<Maid>The mayor... cornered in the basement...")
  0()



EVENT   70
 PAGE   1
  ShowMessageFace("mob_ozyou_fc1",0,0,2,1)
  ShowMessage("\\n<Alleria>I'm just a battle fucker, but I won't fall behind these low-rank succubi.")
  ShowMessageFace("mob_ozyou_fc1",0,0,2,2)
  ShowMessage("\\n<Alleria>If you want to battle fuck, come again later.\nI'll show you a good time once things have settled down here...")
  0()



EVENT   71
 PAGE   1
  ShowMessageFace("",0,0,2,1)
  ShowMessage("\\n<Attacking Succubus>H-How could I lose to a human...")
  0()



EVENT   72
 PAGE   1
  ShowMessageFace("",0,0,2,1)
  ShowMessage("\\n<Maid>Aaah, I'm ascending to Heaven...")
  0()



EVENT   73
 PAGE   1
  ShowMessageFace("",0,0,2,1)
  ShowMessage("\\n<Maid>Witch left to perform some sort of ritual...")
  0()



EVENT   74
 PAGE   1
  ShowMessageFace("",0,0,2,1)
  ShowMessage("\\n<Maid>Hurry... to the mayor...")
  0()



EVENT   75
 PAGE   1
  ShowMessageFace("",0,0,2,1)
  ShowMessage("\\n<Man>Eeek... I didn't do anything wrong!\nHey, do something! You're a hero, aren't you!?")
  355("actor_label_jump")
  EndEventProcessing()
  DefineLabel("171")
  ShowMessageFace("lizardboss_fc1",5,0,2,2)
  ShowMessage("\\n<Miranda>What a deplorable asshole...")
  EndEventProcessing()
  DefineLabel("226")
  ShowMessageFace("sirohebisama_fc1",0,0,2,3)
  ShowMessage("\\n<Shirohebi>We have to defend a man like this?\nBeing a hero can be rough.")
  EndEventProcessing()
  0()



EVENT   76
 PAGE   1
  RunCommonEvent(342)
  0()
 PAGE   2
  // condition: switch 2209 is ON
  0()



EVENT   77
 PAGE   1
  RunCommonEvent(342)
  0()
 PAGE   2
  // condition: switch 2209 is ON
  0()



EVENT   78
 PAGE   1
  RunCommonEvent(342)
  0()
 PAGE   2
  // condition: switch 2209 is ON
  0()



EVENT   79
 PAGE   1
  RunCommonEvent(342)
  0()
 PAGE   2
  // condition: switch 2209 is ON
  0()



EVENT   80
 PAGE   1
  RunCommonEvent(342)
  0()
 PAGE   2
  // condition: switch 2209 is ON
  0()



EVENT   81
 PAGE   1
  RunCommonEvent(342)
  0()
 PAGE   2
  // condition: switch 2209 is ON
  0()



EVENT   82
 PAGE   1
  RunCommonEvent(342)
  0()
 PAGE   2
  // condition: switch 2209 is ON
  0()



EVENT   83
 PAGE   1
  RunCommonEvent(342)
  0()
 PAGE   2
  // condition: switch 2209 is ON
  0()



EVENT   84
 PAGE   1
  RunCommonEvent(342)
  0()
 PAGE   2
  // condition: switch 2209 is ON
  0()

EVENT   85
 PAGE   1
  250(bytes(0x04,0x08,0x6f,0x3a,0x0c,0x52,0x50,0x47,0x3a,0x3a,0x53,0x45,0x08,0x3a,0x0a,0x40,0x6e,0x61,0x6d,0x65,0x49,0x22,0x0a,0x48,0x65,0x61,0x6c,0x37,0x06,0x3a,0x06,0x45,0x54,0x3a,0x0b,0x40,0x70,0x69,0x74,0x63,0x68,0x69,0x69,0x3a,0x0c,0x40,0x76,0x6f,0x6c,0x75,0x6d,0x65,0x69,0x55))
  224(bytes(0x04,0x08,0x75,0x3a,0x0a,0x43,0x6f,0x6c,0x6f,0x72,0x25,0x00,0x00,0x00,0x00,0x00,0xe0,0x6f,0x40,0x00,0x00,0x00,0x00,0x00,0xe0,0x6f,0x40,0x00,0x00,0x00,0x00,0x00,0xe0,0x6f,0x40,0x00,0x00,0x00,0x00,0x00,0xe0,0x6f,0x40),30,true)
  314(0,0)
  ShowMessageFace("",0,0,2,1)
  ShowMessage("The party's HP and MP have been fully restored!")
  0()


