﻿
DisplayName "Southern Undersea Temple"



EVENT   1
 PAGE   1
  0()



EVENT   2
 PAGE   1
  0()



EVENT   3
 PAGE   1
  0()
 PAGE   2
  // condition: switch 31 is ON
  0()



EVENT   4
 PAGE   1
  0()
 PAGE   2
  // condition: switch 31 is ON
  0()



EVENT   5
 PAGE   1
  0()
 PAGE   2
  // condition: switch 31 is ON
  0()



EVENT   6
 PAGE   1
  ShowMessageFace("poseidones_fc1",1,0,2,1)
  ShowMessage("\\n<Poseidoness>Wah-ha ha ha!")
  ShowMessageFace("kraken_fc1",1,0,2,2)
  ShowMessage("\\n<Kraken>Wah-ha ha ha!")
  ShowMessageFace("poseidones_fc1",1,0,2,3)
  ShowMessage("\\n<Poseidoness>ぐびぐびぐび……")
  ShowMessageFace("kraken_fc1",1,0,2,4)
  ShowMessage("\\n<Kraken>……おかわり！")
  ShowMessageFace("sonia_fc4",0,0,2,5)
  ShowMessage("\\n<Sonya>竜宮城っていうか、海底神殿じゃない。")
  ShowMessage("完全に宴会モードだし……")
  ShowMessageFace("saki_fc1",3,0,2,6)
  ShowMessage("\\n<Saki>ららら～♪　竜宮のダンス～♪")
  ShowMessageFace("wakame_fc1",1,0,2,7)
  ShowMessage("\\n<わかめ>らんらんらん……☆")
  ShowMessageFace("kraken_fc1",1,0,2,8)
  ShowMessage("\\n<Kraken>そう、その足運び……")
  ShowMessage("ステップもターンも見事です。")
  ShowMessageFace("poseidones_fc1",1,0,2,9)
  ShowMessage("\\n<Poseidoness>ワッハッッハ、酒も進むな！")
  ShowMessageFace("kaniloid_fc1",2,0,2,10)
  ShowMessage("\\n<ジリアン>……なぜ、私まで？")
  250(bytes(0x04,0x08,0x6f,0x3a,0x0c,0x52,0x50,0x47,0x3a,0x3a,0x53,0x45,0x08,0x3a,0x0a,0x40,0x6e,0x61,0x6d,0x65,0x49,0x22,0x0a,0x49,0x74,0x65,0x6d,0x31,0x06,0x3a,0x06,0x45,0x54,0x3a,0x0b,0x40,0x70,0x69,0x74,0x63,0x68,0x69,0x69,0x3a,0x0c,0x40,0x76,0x6f,0x6c,0x75,0x6d,0x65,0x69,0x55))
  318(0,128,0,2044)
  ShowMessageFace("",0,0,2,11)
  ShowMessage("サキは\\I[176]\\C[1]竜宮の踊り\\C[0]を修得した！")
  ShowMessage("わかめは\\I[176]\\C[1]竜宮の踊り\\C[0]を修得した！")
  ShowMessage("ジリアンは\\I[176]\\C[1]竜宮の踊り\\C[0]を修得した！")
  ChangeSwitch(31,31,0)
  ShowMessageFace("saki_fc1",0,0,2,12)
  ShowMessage("\\n<Saki>じゃあ次は、さざなみの踊りだね。")
  ShowMessage("海の踊り、たくさんマスターしないと☆")
  ShowMessageFace("poseidones_fc1",0,0,2,13)
  ShowMessage("\\n<Poseidoness>さざなみの踊り？")
  ShowMessage("ならば、さざなみの試練をクリアせねばならんな……")
  ShowMessageFace("kraken_fc1",0,0,2,14)
  ShowMessage("\\n<Kraken>ですが、少々お待ちを。")
  ShowMessage("エキストラの仕込みに時間が掛かりますので……")
  ShowMessageFace("wakame_fc1",2,0,2,15)
  ShowMessage("\\n<わかめ>また試練があるの……？")
  ShowMessageFace("saki_fc1",2,0,2,16)
  ShowMessage("\\n<Saki>ダンスのレッスンなら、いくら厳しくても耐えられるけど……")
  ShowMessage("変な試練は、もうお腹いっぱいかなぁ。")
  241(bytes(0x04,0x08,0x6f,0x3a,0x0d,0x52,0x50,0x47,0x3a,0x3a,0x42,0x47,0x4d,0x08,0x3a,0x0a,0x40,0x6e,0x61,0x6d,0x65,0x49,0x22,0x0a,0x73,0x74,0x65,0x69,0x6e,0x06,0x3a,0x06,0x45,0x54,0x3a,0x0c,0x40,0x76,0x6f,0x6c,0x75,0x6d,0x65,0x69,0x69,0x3a,0x0b,0x40,0x70,0x69,0x74,0x63,0x68,0x69,0x69))
  ShowMessageFace("",0,0,2,17)
  ShowMessage("\\n<???>Hehehe, just as I expected...")
  Wait(30)
  ChangeSwitch(32,32,0)
  205(8,bytes(0x04,0x08,0x6f,0x3a,0x13,0x52,0x50,0x47,0x3a,0x3a,0x4d,0x6f,0x76,0x65,0x52,0x6f,0x75,0x74,0x65,0x09,0x3a,0x0c,0x40,0x72,0x65,0x70,0x65,0x61,0x74,0x46,0x3a,0x0f,0x40,0x73,0x6b,0x69,0x70,0x70,0x61,0x62,0x6c,0x65,0x46,0x3a,0x0a,0x40,0x77,0x61,0x69,0x74,0x54,0x3a,0x0a,0x40,0x6c,0x69,0x73,0x74,0x5b,0x08,0x6f,0x3a,0x15,0x52,0x50,0x47,0x3a,0x3a,0x4d,0x6f,0x76,0x65,0x43,0x6f,0x6d,0x6d,0x61,0x6e,0x64,0x07,0x3a,0x0a,0x40,0x63,0x6f,0x64,0x65,0x69,0x13,0x3a,0x10,0x40,0x70,0x61,0x72,0x61,0x6d,0x65,0x74,0x65,0x72,0x73,0x5b,0x07,0x69,0x08,0x69,0xfa,0x6f,0x3b,0x0a,0x07,0x3b,0x0b,0x69,0x18,0x3b,0x0c,0x5b,0x00,0x6f,0x3b,0x0a,0x07,0x3b,0x0b,0x69,0x00,0x3b,0x0c,0x5b,0x00))
  Wait(30)
  ShowMessageFace("stein_fc2",1,0,2,18)
  ShowMessage("\\n<Promestein>このような試練、やはり時間の無駄でした。")
  ShowMessage("不合理な精神主義の行き着く果ては、このようなものです。")
  241(bytes(0x04,0x08,0x6f,0x3a,0x0d,0x52,0x50,0x47,0x3a,0x3a,0x42,0x47,0x4d,0x08,0x3a,0x0a,0x40,0x6e,0x61,0x6d,0x65,0x49,0x22,0x11,0x73,0x63,0x65,0x6e,0x65,0x5f,0x64,0x61,0x6e,0x63,0x65,0x32,0x06,0x3a,0x06,0x45,0x54,0x3a,0x0c,0x40,0x76,0x6f,0x6c,0x75,0x6d,0x65,0x69,0x69,0x3a,0x0b,0x40,0x70,0x69,0x74,0x63,0x68,0x69,0x69))
  ShowMessageFace("poseidones_fc1",0,0,2,19)
  ShowMessage("\\n<Poseidoness>なんだ、この不穏なBGMは。")
  ShowMessage("酒が不味くなる、元に戻すぞ……")
  205(8,bytes(0x04,0x08,0x6f,0x3a,0x13,0x52,0x50,0x47,0x3a,0x3a,0x4d,0x6f,0x76,0x65,0x52,0x6f,0x75,0x74,0x65,0x09,0x3a,0x0c,0x40,0x72,0x65,0x70,0x65,0x61,0x74,0x46,0x3a,0x0f,0x40,0x73,0x6b,0x69,0x70,0x70,0x61,0x62,0x6c,0x65,0x46,0x3a,0x0a,0x40,0x77,0x61,0x69,0x74,0x54,0x3a,0x0a,0x40,0x6c,0x69,0x73,0x74,0x5b,0x07,0x6f,0x3a,0x15,0x52,0x50,0x47,0x3a,0x3a,0x4d,0x6f,0x76,0x65,0x43,0x6f,0x6d,0x6d,0x61,0x6e,0x64,0x07,0x3a,0x0a,0x40,0x63,0x6f,0x64,0x65,0x69,0x15,0x3a,0x10,0x40,0x70,0x61,0x72,0x61,0x6d,0x65,0x74,0x65,0x72,0x73,0x5b,0x00,0x6f,0x3b,0x0a,0x07,0x3b,0x0b,0x69,0x00,0x3b,0x0c,0x5b,0x00))
  ShowMessageFace("stein_fc2",2,0,2,20)
  ShowMessage("\\n<Promestein>ああ～……")
  205(8,bytes(0x04,0x08,0x6f,0x3a,0x13,0x52,0x50,0x47,0x3a,0x3a,0x4d,0x6f,0x76,0x65,0x52,0x6f,0x75,0x74,0x65,0x09,0x3a,0x0c,0x40,0x72,0x65,0x70,0x65,0x61,0x74,0x46,0x3a,0x0f,0x40,0x73,0x6b,0x69,0x70,0x70,0x61,0x62,0x6c,0x65,0x46,0x3a,0x0a,0x40,0x77,0x61,0x69,0x74,0x54,0x3a,0x0a,0x40,0x6c,0x69,0x73,0x74,0x5b,0x07,0x6f,0x3a,0x15,0x52,0x50,0x47,0x3a,0x3a,0x4d,0x6f,0x76,0x65,0x43,0x6f,0x6d,0x6d,0x61,0x6e,0x64,0x07,0x3a,0x0a,0x40,0x63,0x6f,0x64,0x65,0x69,0x18,0x3a,0x10,0x40,0x70,0x61,0x72,0x61,0x6d,0x65,0x74,0x65,0x72,0x73,0x5b,0x00,0x6f,0x3b,0x0a,0x07,0x3b,0x0b,0x69,0x00,0x3b,0x0c,0x5b,0x00))
  ShowMessageFace("stein_fc2",1,0,2,21)
  ShowMessage("\\n<Promestein>ともかく、この注射があれば試練など不要です。")
  ShowMessage("海棲種になれば、種族固有の踊りも習得できるはず。")
  ShowMessageFace("stein_fc2",0,0,2,22)
  ShowMessage("\\n<Promestein>ただ、この薬はまだまだ研究中なんですよね。")
  ShowMessage("少々不完全なので、臨床実験的なアレになってしまいます。")
  ShowMessageFace("ruka_fc1",0,0,2,23)
  ShowMessage("\\n<Luka>もしかして、副作用があるとか……？")
  ShowMessageFace("stein_fc2",0,0,2,24)
  ShowMessage("\\n<Promestein>いえ……逆に、効果が薄すぎるんですよ。")
  ShowMessage("適性が非常に高い者でないと、何の変化も起きないんです。")
  ShowMessageFace("stein_fc2",0,0,2,25)
  ShowMessage("\\n<Promestein>誰もが海棲種になれるとは限りませんが……")
  ShowMessage("この薬剤、投与してみますか？")
  ShowMessageFace("saki_fc1",3,0,2,26)
  ShowMessage("\\n<Saki>もちろん、チャレンジするよ☆")
  ShowMessageFace("wakame_fc1",1,0,2,27)
  ShowMessage("\\n<わかめ>……するよ☆")
  ShowMessageFace("kaniloid_fc1",1,0,2,28)
  ShowMessage("\\n<ジリアン>ふん、望むところよ。")
  205(4,bytes(0x04,0x08,0x6f,0x3a,0x13,0x52,0x50,0x47,0x3a,0x3a,0x4d,0x6f,0x76,0x65,0x52,0x6f,0x75,0x74,0x65,0x09,0x3a,0x0c,0x40,0x72,0x65,0x70,0x65,0x61,0x74,0x46,0x3a,0x0f,0x40,0x73,0x6b,0x69,0x70,0x70,0x61,0x62,0x6c,0x65,0x46,0x3a,0x0a,0x40,0x77,0x61,0x69,0x74,0x54,0x3a,0x0a,0x40,0x6c,0x69,0x73,0x74,0x5b,0x07,0x6f,0x3a,0x15,0x52,0x50,0x47,0x3a,0x3a,0x4d,0x6f,0x76,0x65,0x43,0x6f,0x6d,0x6d,0x61,0x6e,0x64,0x07,0x3a,0x0a,0x40,0x63,0x6f,0x64,0x65,0x69,0x17,0x3a,0x10,0x40,0x70,0x61,0x72,0x61,0x6d,0x65,0x74,0x65,0x72,0x73,0x5b,0x00,0x6f,0x3b,0x0a,0x07,0x3b,0x0b,0x69,0x00,0x3b,0x0c,0x5b,0x00))
  205(5,bytes(0x04,0x08,0x6f,0x3a,0x13,0x52,0x50,0x47,0x3a,0x3a,0x4d,0x6f,0x76,0x65,0x52,0x6f,0x75,0x74,0x65,0x09,0x3a,0x0c,0x40,0x72,0x65,0x70,0x65,0x61,0x74,0x46,0x3a,0x0f,0x40,0x73,0x6b,0x69,0x70,0x70,0x61,0x62,0x6c,0x65,0x46,0x3a,0x0a,0x40,0x77,0x61,0x69,0x74,0x54,0x3a,0x0a,0x40,0x6c,0x69,0x73,0x74,0x5b,0x07,0x6f,0x3a,0x15,0x52,0x50,0x47,0x3a,0x3a,0x4d,0x6f,0x76,0x65,0x43,0x6f,0x6d,0x6d,0x61,0x6e,0x64,0x07,0x3a,0x0a,0x40,0x63,0x6f,0x64,0x65,0x69,0x16,0x3a,0x10,0x40,0x70,0x61,0x72,0x61,0x6d,0x65,0x74,0x65,0x72,0x73,0x5b,0x00,0x6f,0x3b,0x0a,0x07,0x3b,0x0b,0x69,0x00,0x3b,0x0c,0x5b,0x00))
  205(8,bytes(0x04,0x08,0x6f,0x3a,0x13,0x52,0x50,0x47,0x3a,0x3a,0x4d,0x6f,0x76,0x65,0x52,0x6f,0x75,0x74,0x65,0x09,0x3a,0x0c,0x40,0x72,0x65,0x70,0x65,0x61,0x74,0x46,0x3a,0x0f,0x40,0x73,0x6b,0x69,0x70,0x70,0x61,0x62,0x6c,0x65,0x46,0x3a,0x0a,0x40,0x77,0x61,0x69,0x74,0x46,0x3a,0x0a,0x40,0x6c,0x69,0x73,0x74,0x5b,0x0e,0x6f,0x3a,0x15,0x52,0x50,0x47,0x3a,0x3a,0x4d,0x6f,0x76,0x65,0x43,0x6f,0x6d,0x6d,0x61,0x6e,0x64,0x07,0x3a,0x0a,0x40,0x63,0x6f,0x64,0x65,0x69,0x13,0x3a,0x10,0x40,0x70,0x61,0x72,0x61,0x6d,0x65,0x74,0x65,0x72,0x73,0x5b,0x07,0x69,0x00,0x69,0xf9,0x6f,0x3b,0x0a,0x07,0x3b,0x0b,0x69,0x18,0x3b,0x0c,0x5b,0x00,0x6f,0x3b,0x0a,0x07,0x3b,0x0b,0x69,0x14,0x3b,0x0c,0x5b,0x06,0x69,0x23,0x6f,0x3b,0x0a,0x07,0x3b,0x0b,0x69,0x13,0x3b,0x0c,0x5b,0x07,0x69,0xfa,0x69,0x00,0x6f,0x3b,0x0a,0x07,0x3b,0x0b,0x69,0x16,0x3b,0x0c,0x5b,0x00,0x6f,0x3b,0x0a,0x07,0x3b,0x0b,0x69,0x14,0x3b,0x0c,0x5b,0x06,0x69,0x23,0x6f,0x3b,0x0a,0x07,0x3b,0x0b,0x69,0x13,0x3b,0x0c,0x5b,0x07,0x69,0x07,0x69,0x00,0x6f,0x3b,0x0a,0x07,0x3b,0x0b,0x69,0x17,0x3b,0x0c,0x5b,0x00,0x6f,0x3b,0x0a,0x07,0x3b,0x0b,0x69,0x00,0x3b,0x0c,0x5b,0x00))
  ShowMessageFace("stein_fc2",1,0,2,29)
  ShowMessage("\\n<Promestein>それでは……てぃっ！")
  ShowMessageFace("",0,0,2,30)
  ShowMessage("プロメスティンは、三人に薬を注射した！")
  ShowMessageFace("saki_fc1",0,0,2,31)
  ShowMessage("\\n<Saki>んっ、なんだか……")
  ShowMessage("海のように大らかな気分になっちゃった☆")
  ShowMessageFace("wakame_fc1",1,0,2,32)
  ShowMessage("\\n<わかめ>わかめも海を感じるよ……♪")
  ShowMessageFace("kaniloid_fc1",1,0,2,33)
  ShowMessage("\\n<ジリアン>うむ……海の遺伝子が、我が身に根付いたようだ……")
  ShowMessageFace("stein_fc2",1,0,2,34)
  ShowMessage("\\n<Promestein>なんと、三名とも高い適性があったとは！")
  ShowMessage("素晴らしい、素晴らしい成果です！")
  250(bytes(0x04,0x08,0x6f,0x3a,0x0c,0x52,0x50,0x47,0x3a,0x3a,0x53,0x45,0x08,0x3a,0x0a,0x40,0x6e,0x61,0x6d,0x65,0x49,0x22,0x11,0x6d,0x6f,0x6e,0x5f,0x66,0x61,0x6e,0x66,0x61,0x6c,0x65,0x32,0x06,0x3a,0x06,0x45,0x54,0x3a,0x0b,0x40,0x70,0x69,0x74,0x63,0x68,0x69,0x69,0x3a,0x0c,0x40,0x76,0x6f,0x6c,0x75,0x6d,0x65,0x69,0x69))
  355("set_class_level(114, 301, 10, false, false)")
  655("set_class_level(114, 306, 10, false, true)")
  655("set_class_level(155, 301, 10, false, false)")
  655("set_class_level(155, 306, 10, false, true)")
  655("set_class_level(128, 301, 10, false, true)")
  ShowMessageFace("",0,0,2,35)
  ShowMessage("三人は海棲種に転種した！")
  205(8,bytes(0x04,0x08,0x6f,0x3a,0x13,0x52,0x50,0x47,0x3a,0x3a,0x4d,0x6f,0x76,0x65,0x52,0x6f,0x75,0x74,0x65,0x09,0x3a,0x0c,0x40,0x72,0x65,0x70,0x65,0x61,0x74,0x46,0x3a,0x0f,0x40,0x73,0x6b,0x69,0x70,0x70,0x61,0x62,0x6c,0x65,0x46,0x3a,0x0a,0x40,0x77,0x61,0x69,0x74,0x46,0x3a,0x0a,0x40,0x6c,0x69,0x73,0x74,0x5b,0x08,0x6f,0x3a,0x15,0x52,0x50,0x47,0x3a,0x3a,0x4d,0x6f,0x76,0x65,0x43,0x6f,0x6d,0x6d,0x61,0x6e,0x64,0x07,0x3a,0x0a,0x40,0x63,0x6f,0x64,0x65,0x69,0x07,0x3a,0x10,0x40,0x70,0x61,0x72,0x61,0x6d,0x65,0x74,0x65,0x72,0x73,0x5b,0x00,0x6f,0x3b,0x0a,0x07,0x3b,0x0b,0x69,0x07,0x3b,0x0c,0x5b,0x00,0x6f,0x3b,0x0a,0x07,0x3b,0x0b,0x69,0x00,0x3b,0x0c,0x5b,0x00))
  ShowMessageFace("stein_fc2",1,0,2,36)
  ShowMessage("\\n<Promestein>それに……ふと閃きましたよ。")
  ShowMessageFace("stein_fc2",1,0,2,37)
  ShowMessage("\\n<Promestein>藻類は最も原始的な植物種。")
  ShowMessage("海棲種に適応した藻類の細胞を、少し採取しますね……")
  ShowMessageFace("wakame_fc1",1,0,2,38)
  ShowMessage("\\n<わかめ>お味噌汁に入れると、おいしいよ……")
  ShowMessageFace("stein_fc2",1,0,2,39)
  ShowMessage("\\n<Promestein>では、実験に用いた残りは美味しく頂きます。")
  ShowMessage("おそらくこれで、植物種が海棲種に転種可能になりますよ！")
  ShowMessageFace("poseidones_fc1",1,0,2,40)
  ShowMessage("\\n<Poseidoness>なんだか知らんが、とにかくめでたいな！")
  ShowMessageFace("kraken_fc1",1,0,2,41)
  ShowMessage("\\n<Kraken>ワーッハッハッハッハ！")
  ShowMessageFace("poseidones_fc1",1,0,2,42)
  ShowMessage("\\n<Poseidoness>ぐびぐびぐび……")
  If(4,75,0)
   ShowMessageFace("hituzi_fc1",7,0,2,43)
   ShowMessage("\\n<Mary>ぐびぐびぐび……")
   0()
  EndIf()
  ShowMessageFace("kraken_fc1",1,0,2,44)
  ShowMessage("\\n<Kraken>……おかわり！")
  ShowMessageFace("sonia_fc4",0,0,2,45)
  ShowMessage("\\n<Sonya>........................")
  ShowMessageFace("",0,0,2,46)
  ShowMessage("海底神殿の宴は、翌朝まで続いた……")
  355("gain_medal(2119)")
  221()
  Wait(60)
  ChangeSwitch(31,31,1)
  ChangeSwitch(32,32,1)
  ChangeSwitch(1924,1924,0)
  ChangeVariable(1094,1094,0,0,6)
  TeleportPlayer(0,131,21,14,8,2)
  211(1)
  222()
  0()



EVENT   7
 PAGE   1
  0()



EVENT   8
 PAGE   1
  // condition: switch 32 is ON
  0()

EVENT   24
 PAGE   1
  0()



EVENT   25
 PAGE   1
  0()



EVENT   38
 PAGE   1
  0()



EVENT   39
 PAGE   1
  0()



EVENT   40
 PAGE   1
  0()



EVENT   41
 PAGE   1
  0()



EVENT   42
 PAGE   1
  0()



EVENT   43
 PAGE   1
  0()



EVENT   44
 PAGE   1
  0()



EVENT   45
 PAGE   1
  0()


