﻿// EVENT 0606
Name "Event: Mermaid Merchant"

ChangeSwitch(73,73,0)
PictureDisplay(5,"80_s_mermaid_st02",0,0,0,0,100,100,0,0)
PictureMove(5,null,0,0,0,0,100,100,255,0,60,true)
ShowMessageFace("s_mermaid_fc1",1,0,2,1)
ShowMessage("【行商マーメイド】")
ShowMessage("まいど、うちは行商のマーメイドや。")
ShowMessage("買い物するか？　掘り出し物もあるで！")
ShowChoices(strings("通常の商品","掘り出し物","用はない"),3)
IfPlayerPicksChoice(0,null)
 Shop(0,2,0,0,false)
 605(0,4,0,0)
 605(0,7,0,0)
 605(0,11,0,0)
 605(0,13,0,0)
 605(0,14,0,0)
 605(0,15,0,0)
 605(0,16,0,0)
 605(0,17,0,0)
 605(0,18,0,0)
 605(0,19,0,0)
 605(0,20,0,0)
 605(0,21,0,0)
 605(0,23,0,0)
 605(0,35,0,0)
 605(0,52,0,0)
 605(0,56,0,0)
 605(0,60,0,0)
 605(0,64,0,0)
 605(0,68,0,0)
 605(0,72,0,0)
 605(0,76,0,0)
 605(0,80,0,0)
 605(0,102,0,0)
 605(0,109,0,0)
 ShowMessageFace("s_mermaid_fc1",0,0,2,2)
 ShowMessage("【行商マーメイド】")
 ShowMessage("まいどあり、また来てな！")
 PictureClear(5)
 ChangeSwitch(73,73,1)
 EndEventProcessing()
 0()
IfPlayerPicksChoice(1,null)
 If(1,129,0,0,0)
  ChangeVariable(11,11,0,2,1,15)
  If(1,11,0,1,0)
   ShowMessageFace("s_mermaid_fc1",1,0,2,3)
   ShowMessage("【行商マーメイド】")
   ShowMessage("命の木の実やけど、即決3000Gで買わへんか？")
   ShowMessage("今だけ価格、損はさせへんで！")
   ShowMessageFace("",0,0,2,4)
   ShowMessage("命の木の実を買いますか？\\$")
   ShowChoices(strings("はい","いいえ"),2)
   IfPlayerPicksChoice(0,"はい")
    125(1,0,3000)
    250(bytes(0x04,0x08,0x6f,0x3a,0x0c,0x52,0x50,0x47,0x3a,0x3a,0x53,0x45,0x08,0x3a,0x0a,0x40,0x6e,0x61,0x6d,0x65,0x49,0x22,0x0a,0x49,0x74,0x65,0x6d,0x31,0x06,0x3a,0x06,0x45,0x54,0x3a,0x0b,0x40,0x70,0x69,0x74,0x63,0x68,0x69,0x69,0x3a,0x0c,0x40,0x76,0x6f,0x6c,0x75,0x6d,0x65,0x69,0x55))
    ChangeInventory_Item(24,0,0,1)
    ShowMessageFace("s_mermaid_fc1",1,0,2,5)
    ShowMessage("【行商マーメイド】")
    ShowMessage("まいどあり、また来てな！")
    ChangeVariable(129,129,0,0,1)
    PictureClear(5)
    ChangeSwitch(73,73,1)
    EndEventProcessing()
    0()
   IfPlayerPicksChoice(1,"いいえ")
    ShowMessageFace("s_mermaid_fc1",0,0,2,6)
    ShowMessage("【行商マーメイド】")
    ShowMessage("ほな、さいなら。")
    ChangeVariable(129,129,0,0,2)
    PictureClear(5)
    ChangeSwitch(73,73,1)
    EndEventProcessing()
    0()
   404()
   0()
  EndIf()
  If(1,11,0,2,0)
   ShowMessageFace("s_mermaid_fc1",1,0,2,7)
   ShowMessage("【行商マーメイド】")
   ShowMessage("不思議な木の実やけど、即決3000Gで買わへんか？")
   ShowMessage("今だけ価格、損はさせへんで！")
   ShowMessageFace("",0,0,2,8)
   ShowMessage("不思議な木の実を買いますか？\\$")
   ShowChoices(strings("はい","いいえ"),2)
   IfPlayerPicksChoice(0,"はい")
    125(1,0,3000)
    250(bytes(0x04,0x08,0x6f,0x3a,0x0c,0x52,0x50,0x47,0x3a,0x3a,0x53,0x45,0x08,0x3a,0x0a,0x40,0x6e,0x61,0x6d,0x65,0x49,0x22,0x0a,0x49,0x74,0x65,0x6d,0x31,0x06,0x3a,0x06,0x45,0x54,0x3a,0x0b,0x40,0x70,0x69,0x74,0x63,0x68,0x69,0x69,0x3a,0x0c,0x40,0x76,0x6f,0x6c,0x75,0x6d,0x65,0x69,0x55))
    ChangeInventory_Item(25,0,0,1)
    ShowMessageFace("s_mermaid_fc1",1,0,2,9)
    ShowMessage("【行商マーメイド】")
    ShowMessage("まいどあり、また来てな！")
    ChangeVariable(129,129,0,0,1)
    PictureClear(5)
    ChangeSwitch(73,73,1)
    EndEventProcessing()
    0()
   IfPlayerPicksChoice(1,"いいえ")
    ShowMessageFace("s_mermaid_fc1",0,0,2,10)
    ShowMessage("【行商マーメイド】")
    ShowMessage("ほな、さいなら。")
    ChangeVariable(129,129,0,0,2)
    PictureClear(5)
    ChangeSwitch(73,73,1)
    EndEventProcessing()
    0()
   404()
   0()
  EndIf()
  If(1,11,0,3,0)
   ShowMessageFace("s_mermaid_fc1",1,0,2,11)
   ShowMessage("【行商マーメイド】")
   ShowMessage("力の種やけど、即決3000Gで買わへんか？")
   ShowMessage("今だけ価格、損はさせへんで！")
   ShowMessageFace("",0,0,2,12)
   ShowMessage("力の種を買いますか？\\$")
   ShowChoices(strings("はい","いいえ"),2)
   IfPlayerPicksChoice(0,"はい")
    125(1,0,3000)
    250(bytes(0x04,0x08,0x6f,0x3a,0x0c,0x52,0x50,0x47,0x3a,0x3a,0x53,0x45,0x08,0x3a,0x0a,0x40,0x6e,0x61,0x6d,0x65,0x49,0x22,0x0a,0x49,0x74,0x65,0x6d,0x31,0x06,0x3a,0x06,0x45,0x54,0x3a,0x0b,0x40,0x70,0x69,0x74,0x63,0x68,0x69,0x69,0x3a,0x0c,0x40,0x76,0x6f,0x6c,0x75,0x6d,0x65,0x69,0x55))
    ChangeInventory_Item(26,0,0,1)
    ShowMessageFace("s_mermaid_fc1",1,0,2,13)
    ShowMessage("【行商マーメイド】")
    ShowMessage("まいどあり、また来てな！")
    ChangeVariable(129,129,0,0,1)
    PictureClear(5)
    ChangeSwitch(73,73,1)
    EndEventProcessing()
    0()
   IfPlayerPicksChoice(1,"いいえ")
    ShowMessageFace("s_mermaid_fc1",0,0,2,14)
    ShowMessage("【行商マーメイド】")
    ShowMessage("ほな、さいなら。")
    ChangeVariable(129,129,0,0,2)
    PictureClear(5)
    ChangeSwitch(73,73,1)
    EndEventProcessing()
    0()
   404()
   0()
  EndIf()
  If(1,11,0,4,0)
   ShowMessageFace("s_mermaid_fc1",1,0,2,15)
   ShowMessage("【行商マーメイド】")
   ShowMessage("守りの種やけど、即決3000Gで買わへんか？")
   ShowMessage("今だけ価格、損はさせへんで！")
   ShowMessageFace("",0,0,2,16)
   ShowMessage("守りの種を買いますか？\\$")
   ShowChoices(strings("はい","いいえ"),2)
   IfPlayerPicksChoice(0,"はい")
    125(1,0,3000)
    250(bytes(0x04,0x08,0x6f,0x3a,0x0c,0x52,0x50,0x47,0x3a,0x3a,0x53,0x45,0x08,0x3a,0x0a,0x40,0x6e,0x61,0x6d,0x65,0x49,0x22,0x0a,0x49,0x74,0x65,0x6d,0x31,0x06,0x3a,0x06,0x45,0x54,0x3a,0x0b,0x40,0x70,0x69,0x74,0x63,0x68,0x69,0x69,0x3a,0x0c,0x40,0x76,0x6f,0x6c,0x75,0x6d,0x65,0x69,0x55))
    ChangeInventory_Item(27,0,0,1)
    ShowMessageFace("s_mermaid_fc1",1,0,2,17)
    ShowMessage("【行商マーメイド】")
    ShowMessage("まいどあり、また来てな！")
    ChangeVariable(129,129,0,0,1)
    PictureClear(5)
    ChangeSwitch(73,73,1)
    EndEventProcessing()
    0()
   IfPlayerPicksChoice(1,"いいえ")
    ShowMessageFace("s_mermaid_fc1",0,0,2,18)
    ShowMessage("【行商マーメイド】")
    ShowMessage("ほな、さいなら。")
    ChangeVariable(129,129,0,0,2)
    PictureClear(5)
    ChangeSwitch(73,73,1)
    EndEventProcessing()
    0()
   404()
   0()
  EndIf()
  If(1,11,0,5,0)
   ShowMessageFace("s_mermaid_fc1",1,0,2,19)
   ShowMessage("【行商マーメイド】")
   ShowMessage("魔力の種やけど、即決3000Gで買わへんか？")
   ShowMessage("今だけ価格、損はさせへんで！")
   ShowMessageFace("",0,0,2,20)
   ShowMessage("魔力の種を買いますか？\\$")
   ShowChoices(strings("はい","いいえ"),2)
   IfPlayerPicksChoice(0,"はい")
    125(1,0,3000)
    250(bytes(0x04,0x08,0x6f,0x3a,0x0c,0x52,0x50,0x47,0x3a,0x3a,0x53,0x45,0x08,0x3a,0x0a,0x40,0x6e,0x61,0x6d,0x65,0x49,0x22,0x0a,0x49,0x74,0x65,0x6d,0x31,0x06,0x3a,0x06,0x45,0x54,0x3a,0x0b,0x40,0x70,0x69,0x74,0x63,0x68,0x69,0x69,0x3a,0x0c,0x40,0x76,0x6f,0x6c,0x75,0x6d,0x65,0x69,0x55))
    ChangeInventory_Item(28,0,0,1)
    ShowMessageFace("s_mermaid_fc1",1,0,2,21)
    ShowMessage("【行商マーメイド】")
    ShowMessage("まいどあり、また来てな！")
    ChangeVariable(129,129,0,0,1)
    PictureClear(5)
    ChangeSwitch(73,73,1)
    EndEventProcessing()
    0()
   IfPlayerPicksChoice(1,"いいえ")
    ShowMessageFace("s_mermaid_fc1",0,0,2,22)
    ShowMessage("【行商マーメイド】")
    ShowMessage("ほな、さいなら。")
    ChangeVariable(129,129,0,0,2)
    PictureClear(5)
    ChangeSwitch(73,73,1)
    EndEventProcessing()
    0()
   404()
   0()
  EndIf()
  If(1,11,0,6,0)
   ShowMessageFace("s_mermaid_fc1",1,0,2,23)
   ShowMessage("【行商マーメイド】")
   ShowMessage("精神の種やけど、即決3000Gで買わへんか？")
   ShowMessage("今だけ価格、損はさせへんで！")
   ShowMessageFace("",0,0,2,24)
   ShowMessage("精神の種を買いますか？\\$")
   ShowChoices(strings("はい","いいえ"),2)
   IfPlayerPicksChoice(0,"はい")
    125(1,0,3000)
    250(bytes(0x04,0x08,0x6f,0x3a,0x0c,0x52,0x50,0x47,0x3a,0x3a,0x53,0x45,0x08,0x3a,0x0a,0x40,0x6e,0x61,0x6d,0x65,0x49,0x22,0x0a,0x49,0x74,0x65,0x6d,0x31,0x06,0x3a,0x06,0x45,0x54,0x3a,0x0b,0x40,0x70,0x69,0x74,0x63,0x68,0x69,0x69,0x3a,0x0c,0x40,0x76,0x6f,0x6c,0x75,0x6d,0x65,0x69,0x55))
    ChangeInventory_Item(29,0,0,1)
    ShowMessageFace("s_mermaid_fc1",1,0,2,25)
    ShowMessage("【行商マーメイド】")
    ShowMessage("まいどあり、また来てな！")
    ChangeVariable(129,129,0,0,1)
    PictureClear(5)
    ChangeSwitch(73,73,1)
    EndEventProcessing()
    0()
   IfPlayerPicksChoice(1,"いいえ")
    ShowMessageFace("s_mermaid_fc1",0,0,2,26)
    ShowMessage("【行商マーメイド】")
    ShowMessage("ほな、さいなら。")
    ChangeVariable(129,129,0,0,2)
    PictureClear(5)
    ChangeSwitch(73,73,1)
    EndEventProcessing()
    0()
   404()
   0()
  EndIf()
  If(1,11,0,7,0)
   ShowMessageFace("s_mermaid_fc1",1,0,2,27)
   ShowMessage("【行商マーメイド】")
   ShowMessage("素早さの種やけど、即決3000Gで買わへんか？")
   ShowMessage("今だけ価格、損はさせへんで！")
   ShowMessageFace("",0,0,2,28)
   ShowMessage("素早さの種を買いますか？\\$")
   ShowChoices(strings("はい","いいえ"),2)
   IfPlayerPicksChoice(0,"はい")
    125(1,0,3000)
    250(bytes(0x04,0x08,0x6f,0x3a,0x0c,0x52,0x50,0x47,0x3a,0x3a,0x53,0x45,0x08,0x3a,0x0a,0x40,0x6e,0x61,0x6d,0x65,0x49,0x22,0x0a,0x49,0x74,0x65,0x6d,0x31,0x06,0x3a,0x06,0x45,0x54,0x3a,0x0b,0x40,0x70,0x69,0x74,0x63,0x68,0x69,0x69,0x3a,0x0c,0x40,0x76,0x6f,0x6c,0x75,0x6d,0x65,0x69,0x55))
    ChangeInventory_Item(30,0,0,1)
    ShowMessageFace("s_mermaid_fc1",1,0,2,29)
    ShowMessage("【行商マーメイド】")
    ShowMessage("まいどあり、また来てな！")
    ChangeVariable(129,129,0,0,1)
    PictureClear(5)
    ChangeSwitch(73,73,1)
    EndEventProcessing()
    0()
   IfPlayerPicksChoice(1,"いいえ")
    ShowMessageFace("s_mermaid_fc1",0,0,2,30)
    ShowMessage("【行商マーメイド】")
    ShowMessage("ほな、さいなら。")
    ChangeVariable(129,129,0,0,2)
    PictureClear(5)
    ChangeSwitch(73,73,1)
    EndEventProcessing()
    0()
   404()
   0()
  EndIf()
  If(1,11,0,8,0)
   ShowMessageFace("s_mermaid_fc1",1,0,2,31)
   ShowMessage("【行商マーメイド】")
   ShowMessage("器用さの種やけど、即決3000Gで買わへんか？")
   ShowMessage("今だけ価格、損はさせへんで！")
   ShowMessageFace("",0,0,2,32)
   ShowMessage("器用さの種を買いますか？\\$")
   ShowChoices(strings("はい","いいえ"),2)
   IfPlayerPicksChoice(0,"はい")
    125(1,0,3000)
    250(bytes(0x04,0x08,0x6f,0x3a,0x0c,0x52,0x50,0x47,0x3a,0x3a,0x53,0x45,0x08,0x3a,0x0a,0x40,0x6e,0x61,0x6d,0x65,0x49,0x22,0x0a,0x49,0x74,0x65,0x6d,0x31,0x06,0x3a,0x06,0x45,0x54,0x3a,0x0b,0x40,0x70,0x69,0x74,0x63,0x68,0x69,0x69,0x3a,0x0c,0x40,0x76,0x6f,0x6c,0x75,0x6d,0x65,0x69,0x55))
    ChangeInventory_Item(31,0,0,1)
    ShowMessageFace("s_mermaid_fc1",1,0,2,33)
    ShowMessage("【行商マーメイド】")
    ShowMessage("まいどあり、また来てな！")
    ChangeVariable(129,129,0,0,1)
    PictureClear(5)
    ChangeSwitch(73,73,1)
    EndEventProcessing()
    0()
   IfPlayerPicksChoice(1,"いいえ")
    ShowMessageFace("s_mermaid_fc1",0,0,2,34)
    ShowMessage("【行商マーメイド】")
    ShowMessage("ほな、さいなら。")
    ChangeVariable(129,129,0,0,2)
    PictureClear(5)
    ChangeSwitch(73,73,1)
    EndEventProcessing()
    0()
   404()
   0()
  EndIf()
  If(1,11,0,9,0)
   ShowMessageFace("s_mermaid_fc1",1,0,2,35)
   ShowMessage("【行商マーメイド】")
   ShowMessage("天使の種やけど、即決3000Gで買わへんか？")
   ShowMessage("今だけ価格、損はさせへんで！")
   ShowMessageFace("",0,0,2,36)
   ShowMessage("天使の種を買いますか？\\$")
   ShowChoices(strings("はい","いいえ"),2)
   IfPlayerPicksChoice(0,"はい")
    125(1,0,3000)
    250(bytes(0x04,0x08,0x6f,0x3a,0x0c,0x52,0x50,0x47,0x3a,0x3a,0x53,0x45,0x08,0x3a,0x0a,0x40,0x6e,0x61,0x6d,0x65,0x49,0x22,0x0a,0x49,0x74,0x65,0x6d,0x31,0x06,0x3a,0x06,0x45,0x54,0x3a,0x0b,0x40,0x70,0x69,0x74,0x63,0x68,0x69,0x69,0x3a,0x0c,0x40,0x76,0x6f,0x6c,0x75,0x6d,0x65,0x69,0x55))
    ChangeInventory_Item(37,0,0,1)
    ShowMessageFace("s_mermaid_fc1",1,0,2,37)
    ShowMessage("【行商マーメイド】")
    ShowMessage("まいどあり、また来てな！")
    ChangeVariable(129,129,0,0,1)
    PictureClear(5)
    ChangeSwitch(73,73,1)
    EndEventProcessing()
    0()
   IfPlayerPicksChoice(1,"いいえ")
    ShowMessageFace("s_mermaid_fc1",0,0,2,38)
    ShowMessage("【行商マーメイド】")
    ShowMessage("ほな、さいなら。")
    ChangeVariable(129,129,0,0,2)
    PictureClear(5)
    ChangeSwitch(73,73,1)
    EndEventProcessing()
    0()
   404()
   0()
  EndIf()
  If(1,11,0,10,0)
   ShowMessageFace("s_mermaid_fc1",1,0,2,39)
   ShowMessage("【行商マーメイド】")
   ShowMessage("大職の種やけど、即決3000Gで買わへんか？")
   ShowMessage("今だけ価格、損はさせへんで！")
   ShowMessageFace("",0,0,2,40)
   ShowMessage("大職の種を買いますか？\\$")
   ShowChoices(strings("はい","いいえ"),2)
   IfPlayerPicksChoice(0,"はい")
    125(1,0,3000)
    250(bytes(0x04,0x08,0x6f,0x3a,0x0c,0x52,0x50,0x47,0x3a,0x3a,0x53,0x45,0x08,0x3a,0x0a,0x40,0x6e,0x61,0x6d,0x65,0x49,0x22,0x0a,0x49,0x74,0x65,0x6d,0x31,0x06,0x3a,0x06,0x45,0x54,0x3a,0x0b,0x40,0x70,0x69,0x74,0x63,0x68,0x69,0x69,0x3a,0x0c,0x40,0x76,0x6f,0x6c,0x75,0x6d,0x65,0x69,0x55))
    ChangeInventory_Item(41,0,0,1)
    ShowMessageFace("s_mermaid_fc1",1,0,2,41)
    ShowMessage("【行商マーメイド】")
    ShowMessage("まいどあり、また来てな！")
    ChangeVariable(129,129,0,0,1)
    PictureClear(5)
    ChangeSwitch(73,73,1)
    EndEventProcessing()
    0()
   IfPlayerPicksChoice(1,"いいえ")
    ShowMessageFace("s_mermaid_fc1",0,0,2,42)
    ShowMessage("【行商マーメイド】")
    ShowMessage("ほな、さいなら。")
    ChangeVariable(129,129,0,0,2)
    PictureClear(5)
    ChangeSwitch(73,73,1)
    EndEventProcessing()
    0()
   404()
   0()
  EndIf()
  If(1,11,0,11,0)
   ShowMessageFace("s_mermaid_fc1",1,0,2,43)
   ShowMessage("【行商マーメイド】")
   ShowMessage("大種の種やけど、即決3000Gで買わへんか？")
   ShowMessage("今だけ価格、損はさせへんで！")
   ShowMessageFace("",0,0,2,44)
   ShowMessage("大種の種を買いますか？\\$")
   ShowChoices(strings("はい","いいえ"),2)
   IfPlayerPicksChoice(0,"はい")
    125(1,0,3000)
    250(bytes(0x04,0x08,0x6f,0x3a,0x0c,0x52,0x50,0x47,0x3a,0x3a,0x53,0x45,0x08,0x3a,0x0a,0x40,0x6e,0x61,0x6d,0x65,0x49,0x22,0x0a,0x49,0x74,0x65,0x6d,0x31,0x06,0x3a,0x06,0x45,0x54,0x3a,0x0b,0x40,0x70,0x69,0x74,0x63,0x68,0x69,0x69,0x3a,0x0c,0x40,0x76,0x6f,0x6c,0x75,0x6d,0x65,0x69,0x55))
    ChangeInventory_Item(45,0,0,1)
    ShowMessageFace("s_mermaid_fc1",1,0,2,45)
    ShowMessage("【行商マーメイド】")
    ShowMessage("まいどあり、また来てな！")
    ChangeVariable(129,129,0,0,1)
    PictureClear(5)
    ChangeSwitch(73,73,1)
    EndEventProcessing()
    0()
   IfPlayerPicksChoice(1,"いいえ")
    ShowMessageFace("s_mermaid_fc1",0,0,2,46)
    ShowMessage("【行商マーメイド】")
    ShowMessage("ほな、さいなら。")
    ChangeVariable(129,129,0,0,2)
    PictureClear(5)
    ChangeSwitch(73,73,1)
    EndEventProcessing()
    0()
   404()
   0()
  EndIf()
  If(1,11,0,12,1)
   ShowMessageFace("s_mermaid_fc1",1,0,2,47)
   ShowMessage("【行商マーメイド】")
   ShowMessage("小さなメダルやけど、即決3000Gで買わへんか？")
   ShowMessage("今だけ価格、損はさせへんで！")
   ShowMessageFace("",0,0,2,48)
   ShowMessage("小さなメダルを買いますか？\\$")
   ShowChoices(strings("はい","いいえ"),2)
   IfPlayerPicksChoice(0,"はい")
    125(1,0,3000)
    250(bytes(0x04,0x08,0x6f,0x3a,0x0c,0x52,0x50,0x47,0x3a,0x3a,0x53,0x45,0x08,0x3a,0x0a,0x40,0x6e,0x61,0x6d,0x65,0x49,0x22,0x0a,0x49,0x74,0x65,0x6d,0x31,0x06,0x3a,0x06,0x45,0x54,0x3a,0x0b,0x40,0x70,0x69,0x74,0x63,0x68,0x69,0x69,0x3a,0x0c,0x40,0x76,0x6f,0x6c,0x75,0x6d,0x65,0x69,0x55))
    ChangeInventory_Item(32,0,0,1)
    ShowMessageFace("s_mermaid_fc1",1,0,2,49)
    ShowMessage("【行商マーメイド】")
    ShowMessage("まいどあり、また来てな！")
    ChangeVariable(129,129,0,0,1)
    PictureClear(5)
    ChangeSwitch(73,73,1)
    EndEventProcessing()
    0()
   IfPlayerPicksChoice(1,"いいえ")
    ShowMessageFace("s_mermaid_fc1",0,0,2,50)
    ShowMessage("【行商マーメイド】")
    ShowMessage("ほな、さいなら。")
    ChangeVariable(129,129,0,0,2)
    PictureClear(5)
    ChangeSwitch(73,73,1)
    EndEventProcessing()
    0()
   404()
   0()
  EndIf()
  EndEventProcessing()
  0()
 EndIf()
 If(1,129,0,1,0)
  PictureDisplay(5,"80_s_mermaid_st01",0,0,0,0,100,100,0,0)
  PictureMove(5,null,0,0,0,0,100,100,255,0,60,true)
  ShowMessageFace("s_mermaid_fc1",0,0,2,51)
  ShowMessage("【行商マーメイド】")
  ShowMessage("まいどあり、また来てな！")
  PictureClear(5)
  ChangeSwitch(73,73,1)
  EndEventProcessing()
  0()
 EndIf()
 If(1,129,0,2,0)
  PictureDisplay(5,"80_s_mermaid_st01",0,0,0,0,100,100,0,0)
  PictureMove(5,null,0,0,0,0,100,100,255,0,60,true)
  ShowMessageFace("s_mermaid_fc1",0,0,2,52)
  ShowMessage("【行商マーメイド】")
  ShowMessage("え？　あの品、さっきいらん言うたやんか……")
  ShowMessage("うち、もう食べてしもたわ。")
  ShowMessageFace("s_mermaid_fc1",0,0,2,53)
  ShowMessage("【行商マーメイド】")
  ShowMessage("ほな、また来てな！")
  PictureClear(5)
  ChangeSwitch(73,73,1)
  EndEventProcessing()
  0()
 EndIf()
 0()
IfPlayerPicksChoice(2,null)
 ShowMessageFace("s_mermaid_fc1",0,0,2,54)
 ShowMessage("【行商マーメイド】")
 ShowMessage("ほな、さいなら。")
 PictureClear(5)
 ChangeSwitch(73,73,1)
 EndEventProcessing()
 0()
404()
0()
