﻿// EVENT 0899
Name "混沌迷宮イベント階"

ChangeSwitch(48,48,0)
ChangeVariable(11,11,0,2,1,16)
If(0,2335,0)
 ChangeVariable(13,13,0,2,1,2)
 If(1,13,0,1,0)
  ChangeVariable(11,11,0,0,15)
  0()
 EndIf()
 0()
EndIf()
If(1,11,0,1,0)
 250(bytes(0x04,0x08,0x6f,0x3a,0x0c,0x52,0x50,0x47,0x3a,0x3a,0x53,0x45,0x08,0x3a,0x0a,0x40,0x6e,0x61,0x6d,0x65,0x49,0x22,0x09,0x4d,0x6f,0x76,0x65,0x06,0x3a,0x06,0x45,0x54,0x3a,0x0b,0x40,0x70,0x69,0x74,0x63,0x68,0x69,0x69,0x3a,0x0c,0x40,0x76,0x6f,0x6c,0x75,0x6d,0x65,0x69,0x55))
 ChangeSwitch(73,73,0)
 TeleportPlayer(0,761,12,12,2,0)
 222()
 EndEventProcessing()
 0()
EndIf()
If(1,11,0,2,0)
 250(bytes(0x04,0x08,0x6f,0x3a,0x0c,0x52,0x50,0x47,0x3a,0x3a,0x53,0x45,0x08,0x3a,0x0a,0x40,0x6e,0x61,0x6d,0x65,0x49,0x22,0x09,0x4d,0x6f,0x76,0x65,0x06,0x3a,0x06,0x45,0x54,0x3a,0x0b,0x40,0x70,0x69,0x74,0x63,0x68,0x69,0x69,0x3a,0x0c,0x40,0x76,0x6f,0x6c,0x75,0x6d,0x65,0x69,0x55))
 ChangeSwitch(73,73,0)
 TeleportPlayer(0,761,43,11,2,0)
 222()
 EndEventProcessing()
 0()
EndIf()
If(1,11,0,3,0)
 250(bytes(0x04,0x08,0x6f,0x3a,0x0c,0x52,0x50,0x47,0x3a,0x3a,0x53,0x45,0x08,0x3a,0x0a,0x40,0x6e,0x61,0x6d,0x65,0x49,0x22,0x09,0x4d,0x6f,0x76,0x65,0x06,0x3a,0x06,0x45,0x54,0x3a,0x0b,0x40,0x70,0x69,0x74,0x63,0x68,0x69,0x69,0x3a,0x0c,0x40,0x76,0x6f,0x6c,0x75,0x6d,0x65,0x69,0x55))
 ChangeSwitch(73,73,0)
 TeleportPlayer(0,761,12,41,2,0)
 222()
 EndEventProcessing()
 0()
EndIf()
If(1,11,0,4,0)
 250(bytes(0x04,0x08,0x6f,0x3a,0x0c,0x52,0x50,0x47,0x3a,0x3a,0x53,0x45,0x08,0x3a,0x0a,0x40,0x6e,0x61,0x6d,0x65,0x49,0x22,0x09,0x4d,0x6f,0x76,0x65,0x06,0x3a,0x06,0x45,0x54,0x3a,0x0b,0x40,0x70,0x69,0x74,0x63,0x68,0x69,0x69,0x3a,0x0c,0x40,0x76,0x6f,0x6c,0x75,0x6d,0x65,0x69,0x55))
 ChangeSwitch(73,73,0)
 TeleportPlayer(0,761,39,11,2,0)
 222()
 EndEventProcessing()
 0()
EndIf()
If(1,11,0,5,0)
 If(1,601,0,5,2)
  ChangeVariable(126,126,0,1,601)
  ChangeVariable(601,601,1,0,1)
  0()
 Else()
  ChangeVariable(126,126,0,2,0,5)
  0()
 EndIf()
 250(bytes(0x04,0x08,0x6f,0x3a,0x0c,0x52,0x50,0x47,0x3a,0x3a,0x53,0x45,0x08,0x3a,0x0a,0x40,0x6e,0x61,0x6d,0x65,0x49,0x22,0x09,0x4d,0x6f,0x76,0x65,0x06,0x3a,0x06,0x45,0x54,0x3a,0x0b,0x40,0x70,0x69,0x74,0x63,0x68,0x69,0x69,0x3a,0x0c,0x40,0x76,0x6f,0x6c,0x75,0x6d,0x65,0x69,0x55))
 TeleportPlayer(0,781,9,10,8,0)
 222()
 EndEventProcessing()
 0()
EndIf()
If(1,11,0,6,0)
 If(1,602,0,4,2)
  ChangeVariable(126,126,0,1,602)
  ChangeVariable(602,602,1,0,1)
  0()
 Else()
  ChangeVariable(126,126,0,2,0,4)
  0()
 EndIf()
 250(bytes(0x04,0x08,0x6f,0x3a,0x0c,0x52,0x50,0x47,0x3a,0x3a,0x53,0x45,0x08,0x3a,0x0a,0x40,0x6e,0x61,0x6d,0x65,0x49,0x22,0x09,0x4d,0x6f,0x76,0x65,0x06,0x3a,0x06,0x45,0x54,0x3a,0x0b,0x40,0x70,0x69,0x74,0x63,0x68,0x69,0x69,0x3a,0x0c,0x40,0x76,0x6f,0x6c,0x75,0x6d,0x65,0x69,0x55))
 TeleportPlayer(0,790,15,27,8,0)
 222()
 EndEventProcessing()
 0()
EndIf()
If(1,11,0,7,0)
 If(1,603,0,5,2)
  ChangeVariable(126,126,0,1,603)
  ChangeVariable(603,603,1,0,1)
  0()
 Else()
  ChangeVariable(126,126,0,2,0,5)
  0()
 EndIf()
 250(bytes(0x04,0x08,0x6f,0x3a,0x0c,0x52,0x50,0x47,0x3a,0x3a,0x53,0x45,0x08,0x3a,0x0a,0x40,0x6e,0x61,0x6d,0x65,0x49,0x22,0x09,0x4d,0x6f,0x76,0x65,0x06,0x3a,0x06,0x45,0x54,0x3a,0x0b,0x40,0x70,0x69,0x74,0x63,0x68,0x69,0x69,0x3a,0x0c,0x40,0x76,0x6f,0x6c,0x75,0x6d,0x65,0x69,0x55))
 ChangeVariable(1095,1095,0,0,0)
 ChangeVariable(16,16,0,0,0)
 TeleportPlayer(0,804,17,27,8,0)
 222()
 EndEventProcessing()
 0()
EndIf()
If(1,11,0,8,0)
 If(1,604,0,5,2)
  ChangeVariable(126,126,0,1,604)
  ChangeVariable(604,604,1,0,1)
  0()
 Else()
  ChangeVariable(126,126,0,2,0,5)
  0()
 EndIf()
 250(bytes(0x04,0x08,0x6f,0x3a,0x0c,0x52,0x50,0x47,0x3a,0x3a,0x53,0x45,0x08,0x3a,0x0a,0x40,0x6e,0x61,0x6d,0x65,0x49,0x22,0x09,0x4d,0x6f,0x76,0x65,0x06,0x3a,0x06,0x45,0x54,0x3a,0x0b,0x40,0x70,0x69,0x74,0x63,0x68,0x69,0x69,0x3a,0x0c,0x40,0x76,0x6f,0x6c,0x75,0x6d,0x65,0x69,0x55))
 TeleportPlayer(0,815,9,10,8,0)
 222()
 EndEventProcessing()
 0()
EndIf()
If(1,11,0,9,0)
 If(1,605,0,4,2)
  ChangeVariable(126,126,0,1,605)
  ChangeVariable(605,605,1,0,1)
  0()
 Else()
  ChangeVariable(126,126,0,2,0,4)
  0()
 EndIf()
 250(bytes(0x04,0x08,0x6f,0x3a,0x0c,0x52,0x50,0x47,0x3a,0x3a,0x53,0x45,0x08,0x3a,0x0a,0x40,0x6e,0x61,0x6d,0x65,0x49,0x22,0x09,0x4d,0x6f,0x76,0x65,0x06,0x3a,0x06,0x45,0x54,0x3a,0x0b,0x40,0x70,0x69,0x74,0x63,0x68,0x69,0x69,0x3a,0x0c,0x40,0x76,0x6f,0x6c,0x75,0x6d,0x65,0x69,0x55))
 TeleportPlayer(0,797,9,8,8,0)
 222()
 EndEventProcessing()
 0()
EndIf()
If(1,11,0,10,0)
 If(1,606,0,0,0)
  ChangeVariable(606,606,0,0,11)
  0()
 EndIf()
 If(1,606,0,15,2)
  ChangeVariable(126,126,0,1,606)
  ChangeVariable(606,606,1,0,1)
  0()
 Else()
  ChangeVariable(126,126,0,2,11,15)
  0()
 EndIf()
 250(bytes(0x04,0x08,0x6f,0x3a,0x0c,0x52,0x50,0x47,0x3a,0x3a,0x53,0x45,0x08,0x3a,0x0a,0x40,0x6e,0x61,0x6d,0x65,0x49,0x22,0x09,0x4d,0x6f,0x76,0x65,0x06,0x3a,0x06,0x45,0x54,0x3a,0x0b,0x40,0x70,0x69,0x74,0x63,0x68,0x69,0x69,0x3a,0x0c,0x40,0x76,0x6f,0x6c,0x75,0x6d,0x65,0x69,0x55))
 TeleportPlayer(0,797,9,8,8,0)
 222()
 EndEventProcessing()
 0()
EndIf()
If(1,11,0,11,0)
 ChangeVariable(126,126,0,0,21)
 250(bytes(0x04,0x08,0x6f,0x3a,0x0c,0x52,0x50,0x47,0x3a,0x3a,0x53,0x45,0x08,0x3a,0x0a,0x40,0x6e,0x61,0x6d,0x65,0x49,0x22,0x09,0x4d,0x6f,0x76,0x65,0x06,0x3a,0x06,0x45,0x54,0x3a,0x0b,0x40,0x70,0x69,0x74,0x63,0x68,0x69,0x69,0x3a,0x0c,0x40,0x76,0x6f,0x6c,0x75,0x6d,0x65,0x69,0x55))
 TeleportPlayer(0,797,9,8,8,0)
 222()
 EndEventProcessing()
 0()
EndIf()
If(1,11,0,12,0)
 If(1,607,0,5,2)
  ChangeVariable(126,126,0,1,607)
  ChangeVariable(607,607,1,0,1)
  0()
 Else()
  ChangeVariable(126,126,0,2,0,5)
  0()
 EndIf()
 250(bytes(0x04,0x08,0x6f,0x3a,0x0c,0x52,0x50,0x47,0x3a,0x3a,0x53,0x45,0x08,0x3a,0x0a,0x40,0x6e,0x61,0x6d,0x65,0x49,0x22,0x09,0x4d,0x6f,0x76,0x65,0x06,0x3a,0x06,0x45,0x54,0x3a,0x0b,0x40,0x70,0x69,0x74,0x63,0x68,0x69,0x69,0x3a,0x0c,0x40,0x76,0x6f,0x6c,0x75,0x6d,0x65,0x69,0x55))
 TeleportPlayer(0,817,11,18,8,0)
 222()
 EndEventProcessing()
 0()
EndIf()
If(1,11,0,13,0)
 If(1,608,0,4,2)
  ChangeVariable(126,126,0,1,608)
  ChangeVariable(608,608,1,0,1)
  0()
 Else()
  ChangeVariable(126,126,0,2,0,4)
  0()
 EndIf()
 250(bytes(0x04,0x08,0x6f,0x3a,0x0c,0x52,0x50,0x47,0x3a,0x3a,0x53,0x45,0x08,0x3a,0x0a,0x40,0x6e,0x61,0x6d,0x65,0x49,0x22,0x09,0x4d,0x6f,0x76,0x65,0x06,0x3a,0x06,0x45,0x54,0x3a,0x0b,0x40,0x70,0x69,0x74,0x63,0x68,0x69,0x69,0x3a,0x0c,0x40,0x76,0x6f,0x6c,0x75,0x6d,0x65,0x69,0x55))
 TeleportPlayer(0,814,6,8,6,0)
 222()
 EndEventProcessing()
 0()
EndIf()
If(1,11,0,14,0)
 250(bytes(0x04,0x08,0x6f,0x3a,0x0c,0x52,0x50,0x47,0x3a,0x3a,0x53,0x45,0x08,0x3a,0x0a,0x40,0x6e,0x61,0x6d,0x65,0x49,0x22,0x09,0x4d,0x6f,0x76,0x65,0x06,0x3a,0x06,0x45,0x54,0x3a,0x0b,0x40,0x70,0x69,0x74,0x63,0x68,0x69,0x69,0x3a,0x0c,0x40,0x76,0x6f,0x6c,0x75,0x6d,0x65,0x69,0x55))
 TeleportPlayer(0,800,30,29,8,0)
 222()
 EndEventProcessing()
 0()
EndIf()
If(1,11,0,15,1)
 If(1,11,0,16,2)
  250(bytes(0x04,0x08,0x6f,0x3a,0x0c,0x52,0x50,0x47,0x3a,0x3a,0x53,0x45,0x08,0x3a,0x0a,0x40,0x6e,0x61,0x6d,0x65,0x49,0x22,0x09,0x4d,0x6f,0x76,0x65,0x06,0x3a,0x06,0x45,0x54,0x3a,0x0b,0x40,0x70,0x69,0x74,0x63,0x68,0x69,0x69,0x3a,0x0c,0x40,0x76,0x6f,0x6c,0x75,0x6d,0x65,0x69,0x55))
  ChangeVariable(148,148,0,2,5,50)
  TeleportPlayer(0,834,9,11,8,0)
  222()
  EndEventProcessing()
  0()
 EndIf()
 0()
EndIf()
0()
